xof 0302txt 0064
template Header {
 <3D82AB43-62DA-11cf-AB39-0020AF71E433>
 WORD major;
 WORD minor;
 DWORD flags;
}

template Vector {
 <3D82AB5E-62DA-11cf-AB39-0020AF71E433>
 FLOAT x;
 FLOAT y;
 FLOAT z;
}

template Coords2d {
 <F6F23F44-7686-11cf-8F52-0040333594A3>
 FLOAT u;
 FLOAT v;
}

template Matrix4x4 {
 <F6F23F45-7686-11cf-8F52-0040333594A3>
 array FLOAT matrix[16];
}

template ColorRGBA {
 <35FF44E0-6C7C-11cf-8F52-0040333594A3>
 FLOAT red;
 FLOAT green;
 FLOAT blue;
 FLOAT alpha;
}

template ColorRGB {
 <D3E16E81-7835-11cf-8F52-0040333594A3>
 FLOAT red;
 FLOAT green;
 FLOAT blue;
}

template IndexedColor {
 <1630B820-7842-11cf-8F52-0040333594A3>
 DWORD index;
 ColorRGBA indexColor;
}

template Boolean {
 <4885AE61-78E8-11cf-8F52-0040333594A3>
 WORD truefalse;
}

template Boolean2d {
 <4885AE63-78E8-11cf-8F52-0040333594A3>
 Boolean u;
 Boolean v;
}

template MaterialWrap {
 <4885AE60-78E8-11cf-8F52-0040333594A3>
 Boolean u;
 Boolean v;
}

template TextureFilename {
 <A42790E1-7810-11cf-8F52-0040333594A3>
 STRING filename;
}

template Material {
 <3D82AB4D-62DA-11cf-AB39-0020AF71E433>
 ColorRGBA faceColor;
 FLOAT power;
 ColorRGB specularColor;
 ColorRGB emissiveColor;
 [...]
}

template MeshFace {
 <3D82AB5F-62DA-11cf-AB39-0020AF71E433>
 DWORD nFaceVertexIndices;
 array DWORD faceVertexIndices[nFaceVertexIndices];
}

template MeshFaceWraps {
 <4885AE62-78E8-11cf-8F52-0040333594A3>
 DWORD nFaceWrapValues;
 Boolean2d faceWrapValues;
}

template MeshTextureCoords {
 <F6F23F40-7686-11cf-8F52-0040333594A3>
 DWORD nTextureCoords;
 array Coords2d textureCoords[nTextureCoords];
}

template MeshMaterialList {
 <F6F23F42-7686-11cf-8F52-0040333594A3>
 DWORD nMaterials;
 DWORD nFaceIndexes;
 array DWORD faceIndexes[nFaceIndexes];
 [Material]
}

template MeshNormals {
 <F6F23F43-7686-11cf-8F52-0040333594A3>
 DWORD nNormals;
 array Vector normals[nNormals];
 DWORD nFaceNormals;
 array MeshFace faceNormals[nFaceNormals];
}

template MeshVertexColors {
 <1630B821-7842-11cf-8F52-0040333594A3>
 DWORD nVertexColors;
 array IndexedColor vertexColors[nVertexColors];
}

template Mesh {
 <3D82AB44-62DA-11cf-AB39-0020AF71E433>
 DWORD nVertices;
 array Vector vertices[nVertices];
 DWORD nFaces;
 array MeshFace faces[nFaces];
 [...]
}

Header{
1;
0;
1;
}

Mesh {
 354;
 -6.80464;28.91408;3.42063;,
 66.71584;28.91408;3.42063;,
 66.71584;-0.82148;3.42063;,
 -6.80464;-0.82148;3.42063;,
 66.71584;28.91408;3.42063;,
 66.71584;28.91408;9.90896;,
 66.71584;-0.82148;9.90896;,
 66.71584;-0.82148;3.42063;,
 66.71584;28.91408;9.90896;,
 -6.80464;28.91408;9.90896;,
 -6.80464;-0.82148;9.90896;,
 66.71584;-0.82148;9.90896;,
 -6.80464;28.91408;9.90896;,
 -6.80464;28.91408;3.42063;,
 -6.80464;-0.82148;3.42063;,
 -6.80464;-0.82148;9.90896;,
 66.71584;28.91408;3.42063;,
 -6.80464;28.91408;3.42063;,
 -6.80464;-0.82148;3.42063;,
 66.71584;-0.82148;3.42063;,
 63.53586;30.40305;-51.70485;,
 81.52797;29.52575;-57.44319;,
 81.47466;-0.82151;-57.46831;,
 63.53417;-0.82151;-51.70465;,
 81.52797;29.52575;-57.44319;,
 97.93597;29.81187;-12.64343;,
 97.93597;-0.82148;-12.64343;,
 81.47466;-0.82151;-57.46831;,
 85.22533;29.81187;-16.36577;,
 63.53586;30.40305;-51.70485;,
 63.53417;-0.82151;-51.70465;,
 85.22531;-1.19292;-16.36411;,
 81.52797;29.52575;-57.44319;,
 63.53586;30.40305;-51.70485;,
 63.53417;-0.82151;-51.70465;,
 81.47466;-0.82151;-57.46831;,
 95.84028;30.24772;13.86890;,
 83.81768;29.80432;13.74964;,
 83.81592;-0.82148;13.75042;,
 95.84028;-0.82148;13.86890;,
 96.74510;30.24772;0.37006;,
 95.84028;30.24772;13.86890;,
 95.84028;-0.82148;13.86890;,
 96.74510;-0.82148;0.37006;,
 96.48240;-0.82148;-8.62818;,
 96.48240;30.24772;-8.62818;,
 96.74510;30.24772;0.37006;,
 96.48240;30.24772;-8.62818;,
 85.45615;30.24772;-6.16721;,
 84.34662;29.80432;0.29958;,
 83.81768;29.80432;13.74964;,
 96.74510;-0.82148;0.37006;,
 83.81592;-0.82148;13.75042;,
 84.34269;-0.82148;0.30106;,
 85.45615;-0.82148;-6.16721;,
 96.48240;-0.82148;-8.62818;,
 97.22673;30.24772;-11.10200;,
 86.09623;30.24772;-10.46455;,
 85.45615;30.24772;-6.16721;,
 96.48240;30.24772;-8.62818;,
 97.22673;-0.82148;-11.10200;,
 96.48240;-0.82148;-8.62818;,
 86.09623;-0.82148;-10.46455;,
 85.45615;-0.82148;-6.16721;,
 -2.99329;29.95378;-20.69703;,
 9.88683;29.95378;-20.69703;,
 9.88683;-0.82148;-20.69703;,
 -2.99329;-0.82148;-20.69703;,
 -2.99329;30.25192;-16.43743;,
 -2.99329;29.95378;-20.69703;,
 -2.99329;-0.82148;-20.69703;,
 -2.99329;-0.82148;-16.43743;,
 9.88683;30.25192;-13.53546;,
 9.88683;29.95378;-20.69703;,
 -2.99329;29.95378;-20.69703;,
 -2.99329;-0.82148;-20.69703;,
 9.88683;-0.82148;-20.69703;,
 9.88683;-0.82148;-13.53546;,
 -9.91851;30.25192;-8.33875;,
 -3.82733;30.25192;-3.89063;,
 9.88683;30.25192;-13.53546;,
 -2.99329;30.25192;-16.43743;,
 -9.91851;-0.82148;-8.33875;,
 -2.99329;-0.82148;-16.43743;,
 -3.82733;-0.82148;-3.89063;,
 9.88683;-0.82148;-13.53546;,
 -13.18259;30.25192;15.89091;,
 -4.69503;30.25192;15.51492;,
 -13.18259;-0.82148;15.89091;,
 -4.69503;-0.82148;15.51492;,
 65.12520;29.80852;4.71878;,
 73.77876;30.25192;7.96608;,
 73.77876;-0.82148;7.96608;,
 65.12520;-1.26489;4.71878;,
 73.77876;30.25192;19.14517;,
 64.95206;30.25192;19.14517;,
 64.95206;-0.82148;19.14517;,
 73.77876;-0.82148;19.14517;,
 64.95206;30.25192;19.14517;,
 65.12520;29.80852;4.71878;,
 65.12520;-1.26489;4.71878;,
 64.95206;-0.82148;19.14517;,
 73.77876;30.25192;19.14517;,
 73.77876;30.25192;7.96608;,
 65.12520;29.80852;4.71878;,
 65.12520;-1.26489;4.71878;,
 73.77876;-0.82148;7.96608;,
 73.77876;-0.82148;19.14517;,
 91.74248;30.25192;13.66471;,
 96.99018;30.25192;0.49507;,
 73.77876;30.25192;7.96608;,
 91.74248;-0.82148;13.66471;,
 96.99018;-0.82148;0.49507;,
 73.77876;-0.82148;7.96608;,
 25.16417;29.95378;-20.37706;,
 49.36561;29.95378;-37.82618;,
 49.36561;-0.82148;-37.82618;,
 25.16417;-0.82148;-20.37706;,
 68.72211;29.79289;-11.55043;,
 27.49547;29.79289;-11.55043;,
 27.49547;-0.82148;-11.55043;,
 68.72211;-0.82148;-11.55043;,
 27.49547;29.79289;-11.55043;,
 25.16417;29.95378;-20.37706;,
 25.16417;-0.82148;-20.37706;,
 27.49547;-0.82148;-11.55043;,
 68.72211;29.79289;-11.55043;,
 49.36561;29.95378;-37.82618;,
 25.16417;29.95378;-20.37706;,
 25.16417;-0.82148;-20.37706;,
 49.36561;-0.82148;-37.82618;,
 68.72211;-0.82148;-11.55043;,
 72.14737;29.79290;-8.31543;,
 54.55696;30.00473;-43.56299;,
 49.36561;29.95378;-37.82618;,
 72.14737;-0.82148;-8.31543;,
 54.55696;-0.82148;-43.56299;,
 49.36561;-0.82148;-37.82618;,
 76.90474;29.79290;-8.31543;,
 58.18403;29.96058;-45.61167;,
 76.90474;-0.82148;-8.31543;,
 58.18403;-0.82148;-45.61167;,
 81.78629;30.01464;-15.06463;,
 61.02704;29.87198;-50.87201;,
 81.78629;-0.52905;-15.06463;,
 61.02766;-0.82148;-50.87201;,
 53.40159;29.84091;-14.54932;,
 57.23306;29.84091;-14.54932;,
 57.23306;-0.82148;-14.54932;,
 53.40159;-0.82148;-14.54932;,
 57.23306;29.84091;-5.72267;,
 53.40159;29.84091;-9.40962;,
 53.40159;-0.82148;-9.40962;,
 57.23306;-0.82148;-5.72267;,
 53.40159;29.84091;-9.40962;,
 53.40159;29.84091;-14.54932;,
 53.40159;-0.82148;-14.54932;,
 53.40159;-0.82148;-9.40962;,
 57.23306;29.84091;-5.72267;,
 57.23306;29.84091;-14.54932;,
 53.40159;29.84091;-14.54932;,
 53.40159;-0.82148;-14.54932;,
 57.23306;-0.82148;-14.54932;,
 57.23306;-0.82148;-5.72267;,
 62.58506;29.84091;-7.74455;,
 62.58506;29.84091;-16.57118;,
 57.23306;29.84091;-14.54932;,
 62.58506;-0.82148;-7.74455;,
 62.58506;-0.82148;-16.57118;,
 57.23306;-0.82148;-14.54932;,
 16.67346;29.84091;-19.34778;,
 23.93159;29.84091;-17.15098;,
 23.93159;-0.82148;-17.15098;,
 16.67346;-0.82148;-19.34778;,
 25.71559;29.84091;-7.06068;,
 16.67346;29.84091;-14.20808;,
 16.67346;-0.82148;-14.20808;,
 25.71559;-0.82148;-7.06068;,
 16.67346;29.84091;-14.20808;,
 16.67346;29.84091;-19.34778;,
 16.67346;-0.82148;-19.34778;,
 16.67346;-0.82148;-14.20808;,
 25.71559;29.84091;-7.06068;,
 23.93159;29.84091;-17.15098;,
 16.67346;29.84091;-19.34778;,
 16.67346;-0.82148;-19.34778;,
 23.93159;-0.82148;-17.15098;,
 25.71559;-0.82148;-7.06068;,
 29.28360;29.84091;-10.34622;,
 29.28360;29.84091;-19.17287;,
 23.93159;29.84091;-17.15098;,
 29.28360;-0.82148;-10.34622;,
 29.28360;-0.82148;-19.17287;,
 23.93159;-0.82148;-17.15098;,
 73.98778;29.95378;7.59160;,
 74.49254;29.95378;7.59160;,
 74.49254;-0.82148;7.59160;,
 73.98778;-0.82148;7.59160;,
 74.49254;29.95378;7.59160;,
 74.49254;29.95378;13.29625;,
 74.49254;-0.82148;13.29625;,
 74.49254;-0.82148;7.59160;,
 74.49254;29.95378;13.29625;,
 73.98778;29.95378;13.29625;,
 73.98778;-0.82148;13.29625;,
 74.49254;-0.82148;13.29625;,
 73.98778;29.95378;13.29625;,
 73.98778;29.95378;7.59160;,
 73.98778;-0.82148;7.59160;,
 73.98778;-0.82148;13.29625;,
 74.49254;29.95378;7.59160;,
 73.98778;29.95378;7.59160;,
 73.98778;-0.82148;7.59160;,
 74.49254;-0.82148;7.59160;,
 23.30941;30.25192;-13.53546;,
 23.30941;29.95378;-20.69703;,
 9.88683;29.95378;-20.69703;,
 23.30941;-0.82148;-13.53546;,
 23.30941;-0.82148;-20.69703;,
 9.88683;-0.82148;-20.69703;,
 -19.46977;0.06079;21.38619;,
 99.19299;0.06079;21.38619;,
 99.19299;0.06079;-66.23047;,
 -19.46977;0.06079;-66.23047;,
 -10.61395;1.05544;-4.23612;,
 33.02297;1.05544;-4.23612;,
 33.02297;-1.00190;-4.23612;,
 -10.61395;-1.00190;-4.23612;,
 33.02297;1.05544;-4.23612;,
 33.02297;1.05544;-2.61679;,
 33.02297;-1.00190;-2.61679;,
 33.02297;-1.00190;-4.23612;,
 33.02297;1.05544;-2.61679;,
 -10.61395;1.05544;-2.61679;,
 -10.61395;-1.00190;-2.61679;,
 33.02297;-1.00190;-2.61679;,
 -10.61395;1.05544;-2.61679;,
 -10.61395;1.05544;-4.23612;,
 -10.61395;-1.00190;-4.23612;,
 -10.61395;-1.00190;-2.61679;,
 33.02297;1.05544;-4.23612;,
 -10.61395;1.05544;-4.23612;,
 -10.61395;-1.00190;-4.23612;,
 33.02297;-1.00190;-4.23612;,
 40.39201;1.05544;-4.23612;,
 75.51301;1.05544;-4.23612;,
 75.51301;-1.00190;-4.23612;,
 40.39201;-1.00190;-4.23612;,
 75.51301;1.05544;-4.23612;,
 75.51301;1.05544;-2.61679;,
 75.51301;-1.00190;-2.61679;,
 75.51301;-1.00190;-4.23612;,
 75.51301;1.05544;-2.61679;,
 40.39201;1.05544;-2.61679;,
 40.39201;-1.00190;-2.61679;,
 75.51301;-1.00190;-2.61679;,
 40.39201;1.05544;-2.61679;,
 40.39201;1.05544;-4.23612;,
 40.39201;-1.00190;-4.23612;,
 40.39201;-1.00190;-2.61679;,
 75.51301;1.05544;-4.23612;,
 40.39201;1.05544;-4.23612;,
 40.39201;-1.00190;-4.23612;,
 75.51301;-1.00190;-4.23612;,
 63.59772;0.45694;-1.51705;,
 63.78578;0.49580;-1.45790;,
 62.00937;-0.17844;4.24095;,
 61.82137;-0.21730;4.18179;,
 63.89080;0.64274;-1.42301;,
 62.11437;-0.03150;4.27582;,
 63.85125;0.81169;-1.43284;,
 62.07482;0.13745;4.26600;,
 63.69025;0.90367;-1.48162;,
 61.91389;0.22943;4.21722;,
 63.50225;0.86481;-1.54077;,
 61.72583;0.19057;4.15806;,
 63.39724;0.71787;-1.57566;,
 61.62083;0.04363;4.12318;,
 63.43680;0.54893;-1.56583;,
 61.66036;-0.12531;4.13300;,
 63.59772;0.45694;-1.51705;,
 61.82137;-0.21730;4.18179;,
 63.64401;0.68031;-1.49933;,
 63.64401;0.68031;-1.49933;,
 63.64401;0.68031;-1.49933;,
 63.64401;0.68031;-1.49933;,
 63.64401;0.68031;-1.49933;,
 63.64401;0.68031;-1.49933;,
 63.64401;0.68031;-1.49933;,
 63.64401;0.68031;-1.49933;,
 61.86760;0.00606;4.19950;,
 61.86760;0.00606;4.19950;,
 61.86760;0.00606;4.19950;,
 61.86760;0.00606;4.19950;,
 61.86760;0.00606;4.19950;,
 61.86760;0.00606;4.19950;,
 61.86760;0.00606;4.19950;,
 61.86760;0.00606;4.19950;,
 63.52104;1.77602;-4.60017;,
 65.65548;0.53778;-1.12848;,
 65.64960;0.39602;-1.17484;,
 63.51407;1.60807;-4.65510;,
 63.94992;0.26182;-0.06895;,
 61.50023;1.44907;-3.34484;,
 61.49329;1.28111;-3.39977;,
 63.94401;0.12006;-0.11531;,
 61.73483;1.48703;-3.49056;,
 61.72788;1.31907;-3.54550;,
 61.49329;1.28111;-3.39977;,
 61.50023;1.44907;-3.34484;,
 64.14791;0.29386;-0.19197;,
 63.94992;0.26182;-0.06895;,
 63.94401;0.12006;-0.11531;,
 64.14205;0.15210;-0.23833;,
 64.14791;0.29386;-0.19197;,
 61.73483;1.48703;-3.49056;,
 61.50023;1.44907;-3.34484;,
 61.72788;1.31907;-3.54550;,
 64.14205;0.15210;-0.23833;,
 61.49329;1.28111;-3.39977;,
 63.31641;1.74292;-4.47306;,
 63.52104;1.77602;-4.60017;,
 63.51407;1.60807;-4.65510;,
 63.30946;1.57496;-4.52800;,
 65.47988;0.36855;-1.06940;,
 65.64960;0.39602;-1.17484;,
 65.65548;0.53778;-1.12848;,
 65.48571;0.51031;-1.02304;,
 65.48571;0.51031;-1.02304;,
 63.52104;1.77602;-4.60017;,
 63.31641;1.74292;-4.47306;,
 63.30946;1.57496;-4.52800;,
 63.51407;1.60807;-4.65510;,
 65.47988;0.36855;-1.06940;,
 63.31627;0.65946;-1.16022;,
 63.30936;0.49150;-1.21515;,
 63.31641;1.74292;-4.47306;,
 63.30946;1.57496;-4.52800;,
 61.72788;1.31907;-3.54550;,
 61.73483;1.48703;-3.49056;,
 64.88740;0.74683;-2.19547;,
 64.89436;0.91478;-2.14054;,
 64.89436;0.91478;-2.14054;,
 63.31641;1.74292;-4.47306;,
 61.73483;1.48703;-3.49056;,
 63.31627;0.65946;-1.16022;,
 63.30946;1.57496;-4.52800;,
 64.88740;0.74683;-2.19547;,
 63.30936;0.49150;-1.21515;,
 61.72788;1.31907;-3.54550;,
 61.73483;1.48703;-3.49056;,
 61.72788;1.31907;-3.54550;,
 63.31641;1.74292;-4.47306;,
 63.30946;1.57496;-4.52800;;
 
 157;
 4;0,1,2,3;,
 4;4,5,6,7;,
 4;8,9,10,11;,
 4;12,13,14,15;,
 4;12,5,16,17;,
 4;18,19,6,15;,
 4;20,21,22,23;,
 4;24,25,26,27;,
 4;28,29,30,31;,
 4;28,25,32,33;,
 4;34,35,26,31;,
 4;36,37,38,39;,
 4;40,41,42,43;,
 4;40,43,44,45;,
 4;46,47,48,49;,
 4;46,49,50,41;,
 4;51,42,52,53;,
 4;51,53,54,55;,
 4;56,57,58,59;,
 4;60,56,59,61;,
 4;62,60,61,63;,
 4;57,62,63,58;,
 4;25,28,57,56;,
 4;26,25,56,60;,
 4;31,26,60,62;,
 4;28,31,62,57;,
 4;64,65,66,67;,
 4;68,69,70,71;,
 4;68,72,73,74;,
 4;75,76,77,71;,
 4;78,79,80,81;,
 4;82,78,81,83;,
 4;84,82,83,85;,
 4;79,84,85,80;,
 4;86,87,79,78;,
 4;88,86,78,82;,
 4;89,88,82,84;,
 4;87,89,84,79;,
 4;87,86,88,89;,
 4;90,91,92,93;,
 4;94,95,96,97;,
 4;98,99,100,101;,
 4;98,102,103,104;,
 4;105,106,107,101;,
 4;108,109,110,102;,
 4;111,108,102,107;,
 4;112,111,107,113;,
 4;109,112,113,110;,
 4;109,108,111,112;,
 4;114,115,116,117;,
 4;118,119,120,121;,
 4;122,123,124,125;,
 4;122,126,127,128;,
 4;129,130,131,125;,
 4;132,133,134,126;,
 4;135,132,126,131;,
 4;136,135,131,137;,
 4;133,136,137,134;,
 4;138,139,133,132;,
 4;140,138,132,135;,
 4;141,140,135,136;,
 4;139,141,136,133;,
 4;142,143,139,138;,
 4;144,142,138,140;,
 4;145,144,140,141;,
 4;143,145,141,139;,
 4;143,142,144,145;,
 4;146,147,148,149;,
 4;150,151,152,153;,
 4;154,155,156,157;,
 4;154,158,159,160;,
 4;161,162,163,157;,
 4;164,165,166,158;,
 4;167,164,158,163;,
 4;168,167,163,169;,
 4;165,168,169,166;,
 4;165,164,167,168;,
 4;170,171,172,173;,
 4;174,175,176,177;,
 4;178,179,180,181;,
 4;178,182,183,184;,
 4;185,186,187,181;,
 4;188,189,190,182;,
 4;191,188,182,187;,
 4;192,191,187,193;,
 4;189,192,193,190;,
 4;189,188,191,192;,
 4;194,195,196,197;,
 4;198,199,200,201;,
 4;202,203,204,205;,
 4;206,207,208,209;,
 4;206,199,210,211;,
 4;212,213,200,209;,
 4;214,215,216,72;,
 4;217,214,72,77;,
 4;218,217,77,219;,
 4;215,218,219,216;,
 4;215,214,217,218;,
 4;49,58,63,53;,
 4;49,53,52,50;,
 4;220,221,222,223;,
 4;224,225,226,227;,
 4;228,229,230,231;,
 4;232,233,234,235;,
 4;236,237,238,239;,
 4;236,229,240,241;,
 4;242,243,230,239;,
 4;244,245,246,247;,
 4;248,249,250,251;,
 4;252,253,254,255;,
 4;256,257,258,259;,
 4;256,249,260,261;,
 4;262,263,250,259;,
 4;264,265,266,267;,
 4;265,268,269,266;,
 4;268,270,271,269;,
 4;270,272,273,271;,
 4;272,274,275,273;,
 4;274,276,277,275;,
 4;276,278,279,277;,
 4;278,280,281,279;,
 3;282,265,264;,
 3;283,268,265;,
 3;284,270,268;,
 3;285,272,270;,
 3;286,274,272;,
 3;287,276,274;,
 3;288,278,276;,
 3;289,280,278;,
 3;290,267,266;,
 3;291,266,269;,
 3;292,269,271;,
 3;293,271,273;,
 3;294,273,275;,
 3;295,275,277;,
 3;296,277,279;,
 3;297,279,281;,
 4;298,299,300,301;,
 4;302,303,304,305;,
 4;306,307,308,309;,
 4;310,311,312,313;,
 4;314,315,316,302;,
 4;317,318,305,319;,
 4;320,321,322,323;,
 4;324,325,326,327;,
 4;328,299,329,330;,
 4;331,332,300,333;,
 4;334,310,313,335;,
 4;336,337,338,339;,
 4;340,324,327,341;,
 4;340,341,334,335;,
 4;342,343,344,345;,
 4;346,347,348,349;,
 3;350,314,345;,
 3;351,348,318;,
 3;352,342,328;,
 3;353,333,347;;
 
 MeshMaterialList {
  1;
  157;
  0,
  0,
  0,
  0,
  0,
  0,
  0,
  0,
  0,
  0,
  0,
  0,
  0,
  0,
  0,
  0,
  0,
  0,
  0,
  0,
  0,
  0,
  0,
  0,
  0,
  0,
  0,
  0,
  0,
  0,
  0,
  0,
  0,
  0,
  0,
  0,
  0,
  0,
  0,
  0,
  0,
  0,
  0,
  0,
  0,
  0,
  0,
  0,
  0,
  0,
  0,
  0,
  0,
  0,
  0,
  0,
  0,
  0,
  0,
  0,
  0,
  0,
  0,
  0,
  0,
  0,
  0,
  0,
  0,
  0,
  0,
  0,
  0,
  0,
  0,
  0,
  0,
  0,
  0,
  0,
  0,
  0,
  0,
  0,
  0,
  0,
  0,
  0,
  0,
  0,
  0,
  0,
  0,
  0,
  0,
  0,
  0,
  0,
  0,
  0,
  0,
  0,
  0,
  0,
  0,
  0,
  0,
  0,
  0,
  0,
  0,
  0,
  0,
  0,
  0,
  0,
  0,
  0,
  0,
  0,
  0,
  0,
  0,
  0,
  0,
  0,
  0,
  0,
  0,
  0,
  0,
  0,
  0,
  0,
  0,
  0,
  0,
  0,
  0,
  0,
  0,
  0,
  0,
  0,
  0,
  0,
  0,
  0,
  0,
  0,
  0,
  0,
  0,
  0,
  0,
  0,
  0;;
  Material {
   0.000000;0.000000;0.000000;0.000000;;
   5.000000;
   0.000000;0.000000;0.000000;;
   0.000000;0.000000;0.000000;;
  }
 }
 MeshNormals {
  132;
  0.000000;0.000000;-1.000000;,
  1.000000;0.000000;0.000000;,
  0.000000;0.000000;1.000000;,
  -0.304862;0.000668;-0.952396;,
  0.999205;-0.000369;0.039853;,
  -0.939882;0.000022;0.341499;,
  -0.009013;0.999838;0.015564;,
  0.000000;-1.000000;-0.000000;,
  0.991361;0.000000;0.131161;,
  -0.009886;0.000013;0.999951;,
  -0.027158;0.999524;0.014604;,
  0.999822;0.000000;0.018870;,
  0.016739;0.996721;-0.079159;,
  0.007332;-0.999801;0.018550;,
  0.935278;0.000000;0.353913;,
  0.001562;0.999472;-0.032445;,
  -0.938089;0.000000;-0.346395;,
  0.000000;1.000000;0.000000;,
  -0.912812;0.000000;-0.408380;,
  -0.991048;0.000000;-0.133508;,
  0.351334;0.000000;-0.936250;,
  0.023797;0.000000;-0.999717;,
  0.147517;0.000000;0.989059;,
  0.677135;0.000000;0.735859;,
  -0.584836;0.000000;-0.811151;,
  -0.666850;0.000000;-0.745192;,
  -0.369453;0.000000;0.929249;,
  -0.000069;0.999983;0.005794;,
  0.000120;0.999997;0.002479;,
  0.010659;-0.999937;-0.003450;,
  0.454944;0.000000;0.890520;,
  -0.005831;0.999979;0.002735;,
  0.021316;-0.999749;-0.006899;,
  0.810273;0.000000;0.586053;,
  -0.179621;0.000000;-0.983736;,
  -0.693387;0.000000;0.720566;,
  -0.920159;0.000000;0.391544;,
  0.353403;0.000000;0.935471;,
  0.289689;0.000000;-0.957121;,
  -0.033646;0.000000;-0.999434;,
  -0.620118;0.000000;0.784508;,
  -0.900033;0.000000;0.435822;,
  0.915802;0.000000;0.401629;,
  0.000000;0.999135;-0.041594;,
  0.297396;0.014107;-0.954650;,
  -0.111909;-0.982166;-0.151085;,
  0.534181;-0.842726;0.066808;,
  0.941478;-0.202422;0.269526;,
  0.736865;0.605188;0.301294;,
  0.111890;0.982169;0.151080;,
  -0.534190;0.842720;-0.066811;,
  -0.941478;0.202421;-0.269526;,
  -0.736883;-0.605165;-0.301296;,
  -0.297406;-0.014101;0.954647;,
  -0.817023;-0.148321;0.557202;,
  0.864403;0.123523;-0.487390;,
  -0.538770;0.281955;-0.793870;,
  0.538811;-0.281983;0.793831;,
  -0.538768;0.281980;-0.793861;,
  0.538769;-0.281886;0.793894;,
  0.778186;0.165982;-0.605703;,
  -0.894209;-0.105381;0.435070;,
  -1.000000;0.000000;0.000000;,
  0.938854;-0.000682;-0.344315;,
  -0.852274;0.000039;0.523096;,
  0.028589;0.996083;-0.083680;,
  0.023649;0.999679;-0.009092;,
  0.014954;-0.999834;-0.010399;,
  0.014812;-0.999801;0.013350;,
  0.997761;0.000000;0.066880;,
  -0.036283;0.999340;-0.001922;,
  -1.000000;0.000002;-0.000658;,
  -0.987382;0.000030;-0.158358;,
  0.002344;0.999609;-0.027867;,
  0.002343;0.998813;-0.048655;,
  0.004686;0.998436;-0.055713;,
  0.876968;0.000000;0.480548;,
  0.301686;0.000000;0.953407;,
  0.999002;0.000000;0.044669;,
  0.044256;0.000000;0.999020;,
  -0.999928;0.000000;-0.012001;,
  -0.019745;0.999684;-0.015590;,
  -0.009873;0.999921;-0.007796;,
  0.019745;-0.999683;0.015590;,
  0.009873;-0.999921;0.007796;,
  -0.306388;0.000000;-0.951907;,
  0.928966;0.000000;0.370165;,
  -0.966845;0.000000;0.255364;,
  0.005519;0.999927;0.010717;,
  -0.000346;0.999950;0.010041;,
  -0.624674;0.000000;-0.780886;,
  -0.713660;-0.000005;-0.700493;,
  -0.879714;-0.000009;-0.475503;,
  0.865129;0.000009;-0.501549;,
  -0.353400;0.000000;-0.935472;,
  0.677388;0.000000;0.735626;,
  -0.353404;0.000000;-0.935471;,
  -0.994523;0.000075;-0.104520;,
  -0.999231;0.000091;-0.039216;,
  0.297365;0.014118;-0.954660;,
  0.297393;0.014095;-0.954651;,
  0.297376;0.014099;-0.954656;,
  0.297350;0.014105;-0.954664;,
  0.297383;0.014129;-0.954654;,
  0.297434;0.014115;-0.954638;,
  0.297431;0.014104;-0.954639;,
  0.297432;0.014091;-0.954639;,
  -0.297423;-0.014127;0.954641;,
  -0.297439;-0.014076;0.954637;,
  -0.297400;-0.014080;0.954649;,
  -0.297413;-0.014110;0.954645;,
  -0.297408;-0.014100;0.954646;,
  -0.297396;-0.014102;0.954650;,
  -0.297394;-0.014095;0.954651;,
  -0.297378;-0.014114;0.954656;,
  -0.538762;0.281936;-0.793881;,
  0.041031;0.948805;0.313185;,
  0.040163;0.949267;0.311897;,
  -0.038416;-0.950181;-0.309322;,
  -0.037541;-0.950634;-0.308037;,
  -0.538759;0.281988;-0.793865;,
  0.041028;0.948805;0.313186;,
  0.040162;0.949267;0.311897;,
  -0.038405;-0.950180;-0.309328;,
  -0.037519;-0.950630;-0.308049;,
  0.538783;-0.281884;0.793886;,
  0.039295;0.949726;0.310608;,
  -0.039292;-0.949726;-0.310607;,
  -0.119399;-0.958382;-0.259321;,
  -0.041164;0.932407;0.359058;,
  0.043647;-0.931795;-0.360352;,
  0.121801;0.958466;0.257891;;
  157;
  4;0,0,0,0;,
  4;1,1,1,1;,
  4;2,2,2,2;,
  4;62,62,62,62;,
  4;17,17,17,17;,
  4;7,7,7,7;,
  4;3,3,3,3;,
  4;63,4,4,63;,
  4;5,64,64,5;,
  4;65,65,66,66;,
  4;67,67,68,68;,
  4;9,9,9,9;,
  4;11,69,69,11;,
  4;11,11,8,8;,
  4;10,6,6,10;,
  4;10,10,70,70;,
  4;7,7,7,7;,
  4;7,7,7,7;,
  4;12,12,6,6;,
  4;14,14,8,8;,
  4;13,13,7,7;,
  4;71,71,72,72;,
  4;65,65,12,12;,
  4;4,4,14,14;,
  4;68,68,13,13;,
  4;5,5,71,71;,
  4;0,0,0,0;,
  4;16,62,62,16;,
  4;73,15,74,75;,
  4;7,7,7,7;,
  4;17,17,15,73;,
  4;18,18,16,16;,
  4;7,7,7,7;,
  4;76,76,77,77;,
  4;17,17,17,17;,
  4;19,19,18,18;,
  4;7,7,7,7;,
  4;78,78,76,76;,
  4;79,79,79,79;,
  4;20,21,21,20;,
  4;22,2,2,22;,
  4;80,80,80,80;,
  4;81,82,82,81;,
  4;83,84,84,83;,
  4;17,17,82,82;,
  4;23,23,22,22;,
  4;7,7,84,84;,
  4;85,85,21,21;,
  4;86,23,23,86;,
  4;24,25,25,24;,
  4;26,2,2,26;,
  4;87,87,87,87;,
  4;88,89,89,88;,
  4;7,7,7,7;,
  4;27,27,89,89;,
  4;26,26,26,26;,
  4;7,7,7,7;,
  4;90,90,25,25;,
  4;28,28,27,27;,
  4;30,30,26,26;,
  4;29,29,7,7;,
  4;91,91,90,90;,
  4;31,31,28,28;,
  4;33,33,30,30;,
  4;32,32,29,29;,
  4;92,92,91,91;,
  4;93,93,93,93;,
  4;0,34,34,0;,
  4;35,36,36,35;,
  4;36,62,62,36;,
  4;17,17,17,17;,
  4;7,7,7,7;,
  4;17,17,17,17;,
  4;37,37,37,37;,
  4;7,7,7,7;,
  4;94,94,34,34;,
  4;1,1,1,1;,
  4;38,39,39,38;,
  4;40,41,41,40;,
  4;41,62,62,41;,
  4;17,17,17,17;,
  4;7,7,7,7;,
  4;17,17,17,17;,
  4;42,42,95,95;,
  4;7,7,7,7;,
  4;96,96,39,39;,
  4;1,42,42,1;,
  4;0,0,0,0;,
  4;1,1,1,1;,
  4;2,2,2,2;,
  4;62,62,62,62;,
  4;17,17,17,17;,
  4;7,7,7,7;,
  4;43,43,74,15;,
  4;2,2,77,77;,
  4;7,7,7,7;,
  4;0,0,0,0;,
  4;1,1,1,1;,
  4;97,72,72,97;,
  4;97,97,98,98;,
  4;17,17,17,17;,
  4;0,0,0,0;,
  4;1,1,1,1;,
  4;2,2,2,2;,
  4;62,62,62,62;,
  4;17,17,17,17;,
  4;7,7,7,7;,
  4;0,0,0,0;,
  4;1,1,1,1;,
  4;2,2,2,2;,
  4;62,62,62,62;,
  4;17,17,17,17;,
  4;7,7,7,7;,
  4;45,46,46,45;,
  4;46,47,47,46;,
  4;47,48,48,47;,
  4;48,49,49,48;,
  4;49,50,50,49;,
  4;50,51,51,50;,
  4;51,52,52,51;,
  4;52,45,45,52;,
  3;44,99,100;,
  3;44,101,99;,
  3;44,102,101;,
  3;44,103,102;,
  3;44,104,103;,
  3;44,105,104;,
  3;44,106,105;,
  3;44,100,106;,
  3;53,107,108;,
  3;53,108,109;,
  3;53,109,110;,
  3;53,110,111;,
  3;53,111,112;,
  3;53,112,113;,
  3;53,113,114;,
  3;53,114,107;,
  4;55,55,55,55;,
  4;54,54,54,54;,
  4;56,56,115,115;,
  4;57,57,57,57;,
  4;116,117,116,116;,
  4;118,119,119,119;,
  4;58,120,120,58;,
  4;59,59,59,59;,
  4;121,121,121,122;,
  4;123,124,124,124;,
  4;60,60,60,60;,
  4;58,58,56,56;,
  4;61,61,61,61;,
  4;125,125,125,125;,
  4;126,122,117,126;,
  4;123,127,127,118;,
  3;128,128,128;,
  3;129,129,129;,
  3;130,130,130;,
  3;131,131,131;;
 }
 MeshTextureCoords {
  354;
  0.000000;0.000000;,
  1.000000;0.000000;,
  1.000000;1.000000;,
  0.000000;1.000000;,
  0.000000;0.000000;,
  1.000000;0.000000;,
  1.000000;1.000000;,
  0.000000;1.000000;,
  0.000000;0.000000;,
  1.000000;0.000000;,
  1.000000;1.000000;,
  0.000000;1.000000;,
  0.000000;0.000000;,
  1.000000;0.000000;,
  1.000000;1.000000;,
  0.000000;1.000000;,
  1.000000;1.000000;,
  0.000000;1.000000;,
  0.000000;0.000000;,
  1.000000;0.000000;,
  0.000000;0.000000;,
  1.000000;0.000000;,
  1.000000;1.000000;,
  0.000000;1.000000;,
  0.000000;0.000000;,
  1.000000;0.000000;,
  1.000000;1.000000;,
  0.000000;1.000000;,
  0.000000;0.000000;,
  1.000000;0.000000;,
  1.000000;1.000000;,
  0.000000;1.000000;,
  1.000000;1.000000;,
  0.000000;1.000000;,
  0.000000;0.000000;,
  1.000000;0.000000;,
  0.000000;0.000000;,
  1.000000;0.000000;,
  1.000000;1.000000;,
  0.000000;1.000000;,
  0.351110;0.000000;,
  1.000000;0.000000;,
  1.000000;1.000000;,
  0.351110;1.000000;,
  0.000000;1.000000;,
  0.000000;0.000000;,
  1.000000;0.648890;,
  1.000000;1.000000;,
  0.000000;1.000000;,
  0.000000;0.648890;,
  0.000000;0.000000;,
  1.000000;0.351110;,
  0.000000;1.000000;,
  0.000000;0.351110;,
  0.000000;0.000000;,
  1.000000;0.000000;,
  1.000000;0.000000;,
  0.000000;0.000000;,
  0.000000;0.000000;,
  1.000000;0.000000;,
  1.000000;1.000000;,
  1.000000;1.000000;,
  0.000000;1.000000;,
  0.000000;1.000000;,
  0.000000;0.000000;,
  1.000000;0.000000;,
  1.000000;1.000000;,
  0.000000;1.000000;,
  0.000000;0.000000;,
  1.000000;0.000000;,
  1.000000;1.000000;,
  0.000000;1.000000;,
  1.000000;0.000000;,
  1.000000;1.000000;,
  0.000000;1.000000;,
  0.000000;0.000000;,
  1.000000;0.000000;,
  1.000000;1.000000;,
  1.000000;0.000000;,
  0.000000;0.000000;,
  0.000000;0.000000;,
  1.000000;0.000000;,
  1.000000;1.000000;,
  1.000000;1.000000;,
  0.000000;1.000000;,
  0.000000;1.000000;,
  1.000000;0.000000;,
  0.000000;0.000000;,
  1.000000;1.000000;,
  0.000000;1.000000;,
  0.000000;0.000000;,
  1.000000;0.000000;,
  1.000000;1.000000;,
  0.000000;1.000000;,
  0.000000;0.000000;,
  1.000000;0.000000;,
  1.000000;1.000000;,
  0.000000;1.000000;,
  0.000000;0.000000;,
  1.000000;0.000000;,
  1.000000;1.000000;,
  0.000000;1.000000;,
  1.000000;0.000000;,
  1.000000;1.000000;,
  0.000000;1.000000;,
  0.000000;0.000000;,
  1.000000;0.000000;,
  1.000000;1.000000;,
  1.000000;0.000000;,
  0.000000;0.000000;,
  0.000000;0.000000;,
  1.000000;1.000000;,
  0.000000;1.000000;,
  0.000000;1.000000;,
  0.000000;0.000000;,
  1.000000;0.000000;,
  1.000000;1.000000;,
  0.000000;1.000000;,
  0.000000;0.000000;,
  1.000000;0.000000;,
  1.000000;1.000000;,
  0.000000;1.000000;,
  0.000000;0.000000;,
  1.000000;0.000000;,
  1.000000;1.000000;,
  0.000000;1.000000;,
  1.000000;0.000000;,
  1.000000;1.000000;,
  0.000000;1.000000;,
  0.000000;0.000000;,
  1.000000;0.000000;,
  1.000000;1.000000;,
  1.000000;0.000000;,
  0.000000;0.000000;,
  0.000000;0.000000;,
  1.000000;1.000000;,
  0.000000;1.000000;,
  0.000000;1.000000;,
  1.000000;0.000000;,
  0.000000;0.000000;,
  1.000000;1.000000;,
  0.000000;1.000000;,
  1.000000;0.000000;,
  0.000000;0.000000;,
  1.000000;1.000000;,
  0.000000;1.000000;,
  0.000000;0.000000;,
  1.000000;0.000000;,
  1.000000;1.000000;,
  0.000000;1.000000;,
  0.000000;0.000000;,
  1.000000;0.000000;,
  1.000000;1.000000;,
  0.000000;1.000000;,
  0.000000;0.000000;,
  1.000000;0.000000;,
  1.000000;1.000000;,
  0.000000;1.000000;,
  1.000000;0.000000;,
  1.000000;1.000000;,
  0.000000;1.000000;,
  0.000000;0.000000;,
  1.000000;0.000000;,
  1.000000;1.000000;,
  1.000000;0.000000;,
  0.000000;0.000000;,
  0.000000;0.000000;,
  1.000000;1.000000;,
  0.000000;1.000000;,
  0.000000;1.000000;,
  0.000000;0.000000;,
  1.000000;0.000000;,
  1.000000;1.000000;,
  0.000000;1.000000;,
  0.000000;0.000000;,
  1.000000;0.000000;,
  1.000000;1.000000;,
  0.000000;1.000000;,
  0.000000;0.000000;,
  1.000000;0.000000;,
  1.000000;1.000000;,
  0.000000;1.000000;,
  1.000000;0.000000;,
  1.000000;1.000000;,
  0.000000;1.000000;,
  0.000000;0.000000;,
  1.000000;0.000000;,
  1.000000;1.000000;,
  1.000000;0.000000;,
  0.000000;0.000000;,
  0.000000;0.000000;,
  1.000000;1.000000;,
  0.000000;1.000000;,
  0.000000;1.000000;,
  0.000000;0.000000;,
  1.000000;0.000000;,
  1.000000;1.000000;,
  0.000000;1.000000;,
  0.000000;0.000000;,
  1.000000;0.000000;,
  1.000000;1.000000;,
  0.000000;1.000000;,
  0.000000;0.000000;,
  1.000000;0.000000;,
  1.000000;1.000000;,
  0.000000;1.000000;,
  0.000000;0.000000;,
  1.000000;0.000000;,
  1.000000;1.000000;,
  0.000000;1.000000;,
  1.000000;1.000000;,
  0.000000;1.000000;,
  0.000000;0.000000;,
  1.000000;0.000000;,
  1.000000;0.000000;,
  0.000000;0.000000;,
  0.000000;0.000000;,
  1.000000;1.000000;,
  0.000000;1.000000;,
  0.000000;1.000000;,
  0.000000;0.000000;,
  1.000000;0.000000;,
  1.000000;1.000000;,
  0.000000;1.000000;,
  0.000000;0.000000;,
  1.000000;0.000000;,
  1.000000;1.000000;,
  0.000000;1.000000;,
  0.000000;0.000000;,
  1.000000;0.000000;,
  1.000000;1.000000;,
  0.000000;1.000000;,
  0.000000;0.000000;,
  1.000000;0.000000;,
  1.000000;1.000000;,
  0.000000;1.000000;,
  0.000000;0.000000;,
  1.000000;0.000000;,
  1.000000;1.000000;,
  0.000000;1.000000;,
  1.000000;1.000000;,
  0.000000;1.000000;,
  0.000000;0.000000;,
  1.000000;0.000000;,
  0.000000;0.000000;,
  1.000000;0.000000;,
  1.000000;1.000000;,
  0.000000;1.000000;,
  0.000000;0.000000;,
  1.000000;0.000000;,
  1.000000;1.000000;,
  0.000000;1.000000;,
  0.000000;0.000000;,
  1.000000;0.000000;,
  1.000000;1.000000;,
  0.000000;1.000000;,
  0.000000;0.000000;,
  1.000000;0.000000;,
  1.000000;1.000000;,
  0.000000;1.000000;,
  1.000000;1.000000;,
  0.000000;1.000000;,
  0.000000;0.000000;,
  1.000000;0.000000;,
  0.000000;0.000000;,
  0.125000;0.000000;,
  0.125000;1.000000;,
  0.000000;1.000000;,
  0.250000;0.000000;,
  0.250000;1.000000;,
  0.375000;0.000000;,
  0.375000;1.000000;,
  0.500000;0.000000;,
  0.500000;1.000000;,
  0.625000;0.000000;,
  0.625000;1.000000;,
  0.750000;0.000000;,
  0.750000;1.000000;,
  0.875000;0.000000;,
  0.875000;1.000000;,
  1.000000;0.000000;,
  1.000000;1.000000;,
  0.062500;0.000000;,
  0.187500;0.000000;,
  0.312500;0.000000;,
  0.437500;0.000000;,
  0.562500;0.000000;,
  0.687500;0.000000;,
  0.812500;0.000000;,
  0.937500;0.000000;,
  0.062500;1.000000;,
  0.187500;1.000000;,
  0.312500;1.000000;,
  0.437500;1.000000;,
  0.562500;1.000000;,
  0.687500;1.000000;,
  0.812500;1.000000;,
  0.937500;1.000000;,
  0.000000;0.000000;,
  1.000000;0.000000;,
  1.000000;1.000000;,
  0.000000;1.000000;,
  0.000000;0.000000;,
  1.000000;0.000000;,
  1.000000;1.000000;,
  0.000000;1.000000;,
  0.116110;0.000000;,
  0.116110;1.000000;,
  0.000000;1.000000;,
  0.000000;0.000000;,
  0.883890;0.000000;,
  1.000000;0.000000;,
  1.000000;1.000000;,
  0.883890;1.000000;,
  0.116110;0.000000;,
  0.116110;1.000000;,
  0.000000;1.000000;,
  0.116110;0.000000;,
  0.116110;1.000000;,
  0.000000;0.000000;,
  0.900490;0.000000;,
  1.000000;0.000000;,
  1.000000;1.000000;,
  0.900490;1.000000;,
  0.099510;1.000000;,
  0.000000;1.000000;,
  0.000000;0.000000;,
  0.099510;0.000000;,
  0.900490;0.000000;,
  1.000000;1.000000;,
  0.900490;1.000000;,
  0.900490;0.000000;,
  1.000000;0.000000;,
  0.900490;1.000000;,
  0.660290;0.000000;,
  0.660290;1.000000;,
  0.616550;0.000000;,
  0.616550;1.000000;,
  0.339710;1.000000;,
  0.339710;0.000000;,
  0.383450;1.000000;,
  0.383450;0.000000;,
  0.616550;0.000000;,
  0.616550;1.000000;,
  0.339710;1.000000;,
  0.339710;0.000000;,
  0.616550;0.000000;,
  0.616550;1.000000;,
  0.339710;1.000000;,
  0.339710;0.000000;,
  0.227910;1.000000;,
  0.227910;0.000000;,
  0.758520;1.000000;,
  0.758520;0.000000;;
 }
 MeshVertexColors {
  354;
  0;1.000000;1.000000;1.000000;1.000000;,
  1;1.000000;1.000000;1.000000;1.000000;,
  2;1.000000;1.000000;1.000000;1.000000;,
  3;1.000000;1.000000;1.000000;1.000000;,
  4;1.000000;1.000000;1.000000;1.000000;,
  5;1.000000;1.000000;1.000000;1.000000;,
  6;1.000000;1.000000;1.000000;1.000000;,
  7;1.000000;1.000000;1.000000;1.000000;,
  8;1.000000;1.000000;1.000000;1.000000;,
  9;1.000000;1.000000;1.000000;1.000000;,
  10;1.000000;1.000000;1.000000;1.000000;,
  11;1.000000;1.000000;1.000000;1.000000;,
  12;1.000000;1.000000;1.000000;1.000000;,
  13;1.000000;1.000000;1.000000;1.000000;,
  14;1.000000;1.000000;1.000000;1.000000;,
  15;1.000000;1.000000;1.000000;1.000000;,
  16;1.000000;1.000000;1.000000;1.000000;,
  17;1.000000;1.000000;1.000000;1.000000;,
  18;1.000000;1.000000;1.000000;1.000000;,
  19;1.000000;1.000000;1.000000;1.000000;,
  20;1.000000;1.000000;1.000000;1.000000;,
  21;1.000000;1.000000;1.000000;1.000000;,
  22;1.000000;1.000000;1.000000;1.000000;,
  23;1.000000;1.000000;1.000000;1.000000;,
  24;1.000000;1.000000;1.000000;1.000000;,
  25;1.000000;1.000000;1.000000;1.000000;,
  26;1.000000;1.000000;1.000000;1.000000;,
  27;1.000000;1.000000;1.000000;1.000000;,
  28;1.000000;1.000000;1.000000;1.000000;,
  29;1.000000;1.000000;1.000000;1.000000;,
  30;1.000000;1.000000;1.000000;1.000000;,
  31;1.000000;1.000000;1.000000;1.000000;,
  32;1.000000;1.000000;1.000000;1.000000;,
  33;1.000000;1.000000;1.000000;1.000000;,
  34;1.000000;1.000000;1.000000;1.000000;,
  35;1.000000;1.000000;1.000000;1.000000;,
  36;1.000000;1.000000;1.000000;1.000000;,
  37;1.000000;1.000000;1.000000;1.000000;,
  38;1.000000;1.000000;1.000000;1.000000;,
  39;1.000000;1.000000;1.000000;1.000000;,
  40;1.000000;1.000000;1.000000;1.000000;,
  41;1.000000;1.000000;1.000000;1.000000;,
  42;1.000000;1.000000;1.000000;1.000000;,
  43;1.000000;1.000000;1.000000;1.000000;,
  44;1.000000;1.000000;1.000000;1.000000;,
  45;1.000000;1.000000;1.000000;1.000000;,
  46;1.000000;1.000000;1.000000;1.000000;,
  47;1.000000;1.000000;1.000000;1.000000;,
  48;1.000000;1.000000;1.000000;1.000000;,
  49;1.000000;1.000000;1.000000;1.000000;,
  50;1.000000;1.000000;1.000000;1.000000;,
  51;1.000000;1.000000;1.000000;1.000000;,
  52;1.000000;1.000000;1.000000;1.000000;,
  53;1.000000;1.000000;1.000000;1.000000;,
  54;1.000000;1.000000;1.000000;1.000000;,
  55;1.000000;1.000000;1.000000;1.000000;,
  56;1.000000;1.000000;1.000000;1.000000;,
  57;1.000000;1.000000;1.000000;1.000000;,
  58;1.000000;1.000000;1.000000;1.000000;,
  59;1.000000;1.000000;1.000000;1.000000;,
  60;1.000000;1.000000;1.000000;1.000000;,
  61;1.000000;1.000000;1.000000;1.000000;,
  62;1.000000;1.000000;1.000000;1.000000;,
  63;1.000000;1.000000;1.000000;1.000000;,
  64;1.000000;1.000000;1.000000;1.000000;,
  65;1.000000;1.000000;1.000000;1.000000;,
  66;1.000000;1.000000;1.000000;1.000000;,
  67;1.000000;1.000000;1.000000;1.000000;,
  68;1.000000;1.000000;1.000000;1.000000;,
  69;1.000000;1.000000;1.000000;1.000000;,
  70;1.000000;1.000000;1.000000;1.000000;,
  71;1.000000;1.000000;1.000000;1.000000;,
  72;1.000000;1.000000;1.000000;1.000000;,
  73;1.000000;1.000000;1.000000;1.000000;,
  74;1.000000;1.000000;1.000000;1.000000;,
  75;1.000000;1.000000;1.000000;1.000000;,
  76;1.000000;1.000000;1.000000;1.000000;,
  77;1.000000;1.000000;1.000000;1.000000;,
  78;1.000000;1.000000;1.000000;1.000000;,
  79;1.000000;1.000000;1.000000;1.000000;,
  80;1.000000;1.000000;1.000000;1.000000;,
  81;1.000000;1.000000;1.000000;1.000000;,
  82;1.000000;1.000000;1.000000;1.000000;,
  83;1.000000;1.000000;1.000000;1.000000;,
  84;1.000000;1.000000;1.000000;1.000000;,
  85;1.000000;1.000000;1.000000;1.000000;,
  86;1.000000;1.000000;1.000000;1.000000;,
  87;1.000000;1.000000;1.000000;1.000000;,
  88;1.000000;1.000000;1.000000;1.000000;,
  89;1.000000;1.000000;1.000000;1.000000;,
  90;1.000000;1.000000;1.000000;1.000000;,
  91;1.000000;1.000000;1.000000;1.000000;,
  92;1.000000;1.000000;1.000000;1.000000;,
  93;1.000000;1.000000;1.000000;1.000000;,
  94;1.000000;1.000000;1.000000;1.000000;,
  95;1.000000;1.000000;1.000000;1.000000;,
  96;1.000000;1.000000;1.000000;1.000000;,
  97;1.000000;1.000000;1.000000;1.000000;,
  98;1.000000;1.000000;1.000000;1.000000;,
  99;1.000000;1.000000;1.000000;1.000000;,
  100;1.000000;1.000000;1.000000;1.000000;,
  101;1.000000;1.000000;1.000000;1.000000;,
  102;1.000000;1.000000;1.000000;1.000000;,
  103;1.000000;1.000000;1.000000;1.000000;,
  104;1.000000;1.000000;1.000000;1.000000;,
  105;1.000000;1.000000;1.000000;1.000000;,
  106;1.000000;1.000000;1.000000;1.000000;,
  107;1.000000;1.000000;1.000000;1.000000;,
  108;1.000000;1.000000;1.000000;1.000000;,
  109;1.000000;1.000000;1.000000;1.000000;,
  110;1.000000;1.000000;1.000000;1.000000;,
  111;1.000000;1.000000;1.000000;1.000000;,
  112;1.000000;1.000000;1.000000;1.000000;,
  113;1.000000;1.000000;1.000000;1.000000;,
  114;1.000000;1.000000;1.000000;1.000000;,
  115;1.000000;1.000000;1.000000;1.000000;,
  116;1.000000;1.000000;1.000000;1.000000;,
  117;1.000000;1.000000;1.000000;1.000000;,
  118;1.000000;1.000000;1.000000;1.000000;,
  119;1.000000;1.000000;1.000000;1.000000;,
  120;1.000000;1.000000;1.000000;1.000000;,
  121;1.000000;1.000000;1.000000;1.000000;,
  122;1.000000;1.000000;1.000000;1.000000;,
  123;1.000000;1.000000;1.000000;1.000000;,
  124;1.000000;1.000000;1.000000;1.000000;,
  125;1.000000;1.000000;1.000000;1.000000;,
  126;1.000000;1.000000;1.000000;1.000000;,
  127;1.000000;1.000000;1.000000;1.000000;,
  128;1.000000;1.000000;1.000000;1.000000;,
  129;1.000000;1.000000;1.000000;1.000000;,
  130;1.000000;1.000000;1.000000;1.000000;,
  131;1.000000;1.000000;1.000000;1.000000;,
  132;1.000000;1.000000;1.000000;1.000000;,
  133;1.000000;1.000000;1.000000;1.000000;,
  134;1.000000;1.000000;1.000000;1.000000;,
  135;1.000000;1.000000;1.000000;1.000000;,
  136;1.000000;1.000000;1.000000;1.000000;,
  137;1.000000;1.000000;1.000000;1.000000;,
  138;1.000000;1.000000;1.000000;1.000000;,
  139;1.000000;1.000000;1.000000;1.000000;,
  140;1.000000;1.000000;1.000000;1.000000;,
  141;1.000000;1.000000;1.000000;1.000000;,
  142;1.000000;1.000000;1.000000;1.000000;,
  143;1.000000;1.000000;1.000000;1.000000;,
  144;1.000000;1.000000;1.000000;1.000000;,
  145;1.000000;1.000000;1.000000;1.000000;,
  146;1.000000;1.000000;1.000000;1.000000;,
  147;1.000000;1.000000;1.000000;1.000000;,
  148;1.000000;1.000000;1.000000;1.000000;,
  149;1.000000;1.000000;1.000000;1.000000;,
  150;1.000000;1.000000;1.000000;1.000000;,
  151;1.000000;1.000000;1.000000;1.000000;,
  152;1.000000;1.000000;1.000000;1.000000;,
  153;1.000000;1.000000;1.000000;1.000000;,
  154;1.000000;1.000000;1.000000;1.000000;,
  155;1.000000;1.000000;1.000000;1.000000;,
  156;1.000000;1.000000;1.000000;1.000000;,
  157;1.000000;1.000000;1.000000;1.000000;,
  158;1.000000;1.000000;1.000000;1.000000;,
  159;1.000000;1.000000;1.000000;1.000000;,
  160;1.000000;1.000000;1.000000;1.000000;,
  161;1.000000;1.000000;1.000000;1.000000;,
  162;1.000000;1.000000;1.000000;1.000000;,
  163;1.000000;1.000000;1.000000;1.000000;,
  164;1.000000;1.000000;1.000000;1.000000;,
  165;1.000000;1.000000;1.000000;1.000000;,
  166;1.000000;1.000000;1.000000;1.000000;,
  167;1.000000;1.000000;1.000000;1.000000;,
  168;1.000000;1.000000;1.000000;1.000000;,
  169;1.000000;1.000000;1.000000;1.000000;,
  170;1.000000;1.000000;1.000000;1.000000;,
  171;1.000000;1.000000;1.000000;1.000000;,
  172;1.000000;1.000000;1.000000;1.000000;,
  173;1.000000;1.000000;1.000000;1.000000;,
  174;1.000000;1.000000;1.000000;1.000000;,
  175;1.000000;1.000000;1.000000;1.000000;,
  176;1.000000;1.000000;1.000000;1.000000;,
  177;1.000000;1.000000;1.000000;1.000000;,
  178;1.000000;1.000000;1.000000;1.000000;,
  179;1.000000;1.000000;1.000000;1.000000;,
  180;1.000000;1.000000;1.000000;1.000000;,
  181;1.000000;1.000000;1.000000;1.000000;,
  182;1.000000;1.000000;1.000000;1.000000;,
  183;1.000000;1.000000;1.000000;1.000000;,
  184;1.000000;1.000000;1.000000;1.000000;,
  185;1.000000;1.000000;1.000000;1.000000;,
  186;1.000000;1.000000;1.000000;1.000000;,
  187;1.000000;1.000000;1.000000;1.000000;,
  188;1.000000;1.000000;1.000000;1.000000;,
  189;1.000000;1.000000;1.000000;1.000000;,
  190;1.000000;1.000000;1.000000;1.000000;,
  191;1.000000;1.000000;1.000000;1.000000;,
  192;1.000000;1.000000;1.000000;1.000000;,
  193;1.000000;1.000000;1.000000;1.000000;,
  194;1.000000;1.000000;1.000000;1.000000;,
  195;1.000000;1.000000;1.000000;1.000000;,
  196;1.000000;1.000000;1.000000;1.000000;,
  197;1.000000;1.000000;1.000000;1.000000;,
  198;1.000000;1.000000;1.000000;1.000000;,
  199;1.000000;1.000000;1.000000;1.000000;,
  200;1.000000;1.000000;1.000000;1.000000;,
  201;1.000000;1.000000;1.000000;1.000000;,
  202;1.000000;1.000000;1.000000;1.000000;,
  203;1.000000;1.000000;1.000000;1.000000;,
  204;1.000000;1.000000;1.000000;1.000000;,
  205;1.000000;1.000000;1.000000;1.000000;,
  206;1.000000;1.000000;1.000000;1.000000;,
  207;1.000000;1.000000;1.000000;1.000000;,
  208;1.000000;1.000000;1.000000;1.000000;,
  209;1.000000;1.000000;1.000000;1.000000;,
  210;1.000000;1.000000;1.000000;1.000000;,
  211;1.000000;1.000000;1.000000;1.000000;,
  212;1.000000;1.000000;1.000000;1.000000;,
  213;1.000000;1.000000;1.000000;1.000000;,
  214;1.000000;1.000000;1.000000;1.000000;,
  215;1.000000;1.000000;1.000000;1.000000;,
  216;1.000000;1.000000;1.000000;1.000000;,
  217;1.000000;1.000000;1.000000;1.000000;,
  218;1.000000;1.000000;1.000000;1.000000;,
  219;1.000000;1.000000;1.000000;1.000000;,
  220;1.000000;1.000000;1.000000;1.000000;,
  221;1.000000;1.000000;1.000000;1.000000;,
  222;1.000000;1.000000;1.000000;1.000000;,
  223;1.000000;1.000000;1.000000;1.000000;,
  224;1.000000;1.000000;1.000000;1.000000;,
  225;1.000000;1.000000;1.000000;1.000000;,
  226;1.000000;1.000000;1.000000;1.000000;,
  227;1.000000;1.000000;1.000000;1.000000;,
  228;1.000000;1.000000;1.000000;1.000000;,
  229;1.000000;1.000000;1.000000;1.000000;,
  230;1.000000;1.000000;1.000000;1.000000;,
  231;1.000000;1.000000;1.000000;1.000000;,
  232;1.000000;1.000000;1.000000;1.000000;,
  233;1.000000;1.000000;1.000000;1.000000;,
  234;1.000000;1.000000;1.000000;1.000000;,
  235;1.000000;1.000000;1.000000;1.000000;,
  236;1.000000;1.000000;1.000000;1.000000;,
  237;1.000000;1.000000;1.000000;1.000000;,
  238;1.000000;1.000000;1.000000;1.000000;,
  239;1.000000;1.000000;1.000000;1.000000;,
  240;1.000000;1.000000;1.000000;1.000000;,
  241;1.000000;1.000000;1.000000;1.000000;,
  242;1.000000;1.000000;1.000000;1.000000;,
  243;1.000000;1.000000;1.000000;1.000000;,
  244;1.000000;1.000000;1.000000;1.000000;,
  245;1.000000;1.000000;1.000000;1.000000;,
  246;1.000000;1.000000;1.000000;1.000000;,
  247;1.000000;1.000000;1.000000;1.000000;,
  248;1.000000;1.000000;1.000000;1.000000;,
  249;1.000000;1.000000;1.000000;1.000000;,
  250;1.000000;1.000000;1.000000;1.000000;,
  251;1.000000;1.000000;1.000000;1.000000;,
  252;1.000000;1.000000;1.000000;1.000000;,
  253;1.000000;1.000000;1.000000;1.000000;,
  254;1.000000;1.000000;1.000000;1.000000;,
  255;1.000000;1.000000;1.000000;1.000000;,
  256;1.000000;1.000000;1.000000;1.000000;,
  257;1.000000;1.000000;1.000000;1.000000;,
  258;1.000000;1.000000;1.000000;1.000000;,
  259;1.000000;1.000000;1.000000;1.000000;,
  260;1.000000;1.000000;1.000000;1.000000;,
  261;1.000000;1.000000;1.000000;1.000000;,
  262;1.000000;1.000000;1.000000;1.000000;,
  263;1.000000;1.000000;1.000000;1.000000;,
  264;1.000000;1.000000;1.000000;1.000000;,
  265;1.000000;1.000000;1.000000;1.000000;,
  266;1.000000;1.000000;1.000000;1.000000;,
  267;1.000000;1.000000;1.000000;1.000000;,
  268;1.000000;1.000000;1.000000;1.000000;,
  269;1.000000;1.000000;1.000000;1.000000;,
  270;1.000000;1.000000;1.000000;1.000000;,
  271;1.000000;1.000000;1.000000;1.000000;,
  272;1.000000;1.000000;1.000000;1.000000;,
  273;1.000000;1.000000;1.000000;1.000000;,
  274;1.000000;1.000000;1.000000;1.000000;,
  275;1.000000;1.000000;1.000000;1.000000;,
  276;1.000000;1.000000;1.000000;1.000000;,
  277;1.000000;1.000000;1.000000;1.000000;,
  278;1.000000;1.000000;1.000000;1.000000;,
  279;1.000000;1.000000;1.000000;1.000000;,
  280;1.000000;1.000000;1.000000;1.000000;,
  281;1.000000;1.000000;1.000000;1.000000;,
  282;1.000000;1.000000;1.000000;1.000000;,
  283;1.000000;1.000000;1.000000;1.000000;,
  284;1.000000;1.000000;1.000000;1.000000;,
  285;1.000000;1.000000;1.000000;1.000000;,
  286;1.000000;1.000000;1.000000;1.000000;,
  287;1.000000;1.000000;1.000000;1.000000;,
  288;1.000000;1.000000;1.000000;1.000000;,
  289;1.000000;1.000000;1.000000;1.000000;,
  290;1.000000;1.000000;1.000000;1.000000;,
  291;1.000000;1.000000;1.000000;1.000000;,
  292;1.000000;1.000000;1.000000;1.000000;,
  293;1.000000;1.000000;1.000000;1.000000;,
  294;1.000000;1.000000;1.000000;1.000000;,
  295;1.000000;1.000000;1.000000;1.000000;,
  296;1.000000;1.000000;1.000000;1.000000;,
  297;1.000000;1.000000;1.000000;1.000000;,
  298;1.000000;1.000000;1.000000;1.000000;,
  299;1.000000;1.000000;1.000000;1.000000;,
  300;1.000000;1.000000;1.000000;1.000000;,
  301;1.000000;1.000000;1.000000;1.000000;,
  302;1.000000;1.000000;1.000000;1.000000;,
  303;1.000000;1.000000;1.000000;1.000000;,
  304;1.000000;1.000000;1.000000;1.000000;,
  305;1.000000;1.000000;1.000000;1.000000;,
  306;1.000000;1.000000;1.000000;1.000000;,
  307;1.000000;1.000000;1.000000;1.000000;,
  308;1.000000;1.000000;1.000000;1.000000;,
  309;1.000000;1.000000;1.000000;1.000000;,
  310;1.000000;1.000000;1.000000;1.000000;,
  311;1.000000;1.000000;1.000000;1.000000;,
  312;1.000000;1.000000;1.000000;1.000000;,
  313;1.000000;1.000000;1.000000;1.000000;,
  314;1.000000;1.000000;1.000000;1.000000;,
  315;1.000000;1.000000;1.000000;1.000000;,
  316;1.000000;1.000000;1.000000;1.000000;,
  317;1.000000;1.000000;1.000000;1.000000;,
  318;1.000000;1.000000;1.000000;1.000000;,
  319;1.000000;1.000000;1.000000;1.000000;,
  320;1.000000;1.000000;1.000000;1.000000;,
  321;1.000000;1.000000;1.000000;1.000000;,
  322;1.000000;1.000000;1.000000;1.000000;,
  323;1.000000;1.000000;1.000000;1.000000;,
  324;1.000000;1.000000;1.000000;1.000000;,
  325;1.000000;1.000000;1.000000;1.000000;,
  326;1.000000;1.000000;1.000000;1.000000;,
  327;1.000000;1.000000;1.000000;1.000000;,
  328;1.000000;1.000000;1.000000;1.000000;,
  329;1.000000;1.000000;1.000000;1.000000;,
  330;1.000000;1.000000;1.000000;1.000000;,
  331;1.000000;1.000000;1.000000;1.000000;,
  332;1.000000;1.000000;1.000000;1.000000;,
  333;1.000000;1.000000;1.000000;1.000000;,
  334;1.000000;1.000000;1.000000;1.000000;,
  335;1.000000;1.000000;1.000000;1.000000;,
  336;1.000000;1.000000;1.000000;1.000000;,
  337;1.000000;1.000000;1.000000;1.000000;,
  338;1.000000;1.000000;1.000000;1.000000;,
  339;1.000000;1.000000;1.000000;1.000000;,
  340;1.000000;1.000000;1.000000;1.000000;,
  341;1.000000;1.000000;1.000000;1.000000;,
  342;1.000000;1.000000;1.000000;1.000000;,
  343;1.000000;1.000000;1.000000;1.000000;,
  344;1.000000;1.000000;1.000000;1.000000;,
  345;1.000000;1.000000;1.000000;1.000000;,
  346;1.000000;1.000000;1.000000;1.000000;,
  347;1.000000;1.000000;1.000000;1.000000;,
  348;1.000000;1.000000;1.000000;1.000000;,
  349;1.000000;1.000000;1.000000;1.000000;,
  350;1.000000;1.000000;1.000000;1.000000;,
  351;1.000000;1.000000;1.000000;1.000000;,
  352;1.000000;1.000000;1.000000;1.000000;,
  353;1.000000;1.000000;1.000000;1.000000;;
 }
}
