xof 0302txt 0064
template Header {
 <3D82AB43-62DA-11cf-AB39-0020AF71E433>
 WORD major;
 WORD minor;
 DWORD flags;
}

template Vector {
 <3D82AB5E-62DA-11cf-AB39-0020AF71E433>
 FLOAT x;
 FLOAT y;
 FLOAT z;
}

template Coords2d {
 <F6F23F44-7686-11cf-8F52-0040333594A3>
 FLOAT u;
 FLOAT v;
}

template Matrix4x4 {
 <F6F23F45-7686-11cf-8F52-0040333594A3>
 array FLOAT matrix[16];
}

template ColorRGBA {
 <35FF44E0-6C7C-11cf-8F52-0040333594A3>
 FLOAT red;
 FLOAT green;
 FLOAT blue;
 FLOAT alpha;
}

template ColorRGB {
 <D3E16E81-7835-11cf-8F52-0040333594A3>
 FLOAT red;
 FLOAT green;
 FLOAT blue;
}

template IndexedColor {
 <1630B820-7842-11cf-8F52-0040333594A3>
 DWORD index;
 ColorRGBA indexColor;
}

template Boolean {
 <4885AE61-78E8-11cf-8F52-0040333594A3>
 WORD truefalse;
}

template Boolean2d {
 <4885AE63-78E8-11cf-8F52-0040333594A3>
 Boolean u;
 Boolean v;
}

template MaterialWrap {
 <4885AE60-78E8-11cf-8F52-0040333594A3>
 Boolean u;
 Boolean v;
}

template TextureFilename {
 <A42790E1-7810-11cf-8F52-0040333594A3>
 STRING filename;
}

template Material {
 <3D82AB4D-62DA-11cf-AB39-0020AF71E433>
 ColorRGBA faceColor;
 FLOAT power;
 ColorRGB specularColor;
 ColorRGB emissiveColor;
 [...]
}

template MeshFace {
 <3D82AB5F-62DA-11cf-AB39-0020AF71E433>
 DWORD nFaceVertexIndices;
 array DWORD faceVertexIndices[nFaceVertexIndices];
}

template MeshFaceWraps {
 <4885AE62-78E8-11cf-8F52-0040333594A3>
 DWORD nFaceWrapValues;
 Boolean2d faceWrapValues;
}

template MeshTextureCoords {
 <F6F23F40-7686-11cf-8F52-0040333594A3>
 DWORD nTextureCoords;
 array Coords2d textureCoords[nTextureCoords];
}

template MeshMaterialList {
 <F6F23F42-7686-11cf-8F52-0040333594A3>
 DWORD nMaterials;
 DWORD nFaceIndexes;
 array DWORD faceIndexes[nFaceIndexes];
 [Material]
}

template MeshNormals {
 <F6F23F43-7686-11cf-8F52-0040333594A3>
 DWORD nNormals;
 array Vector normals[nNormals];
 DWORD nFaceNormals;
 array MeshFace faceNormals[nFaceNormals];
}

template MeshVertexColors {
 <1630B821-7842-11cf-8F52-0040333594A3>
 DWORD nVertexColors;
 array IndexedColor vertexColors[nVertexColors];
}

template Mesh {
 <3D82AB44-62DA-11cf-AB39-0020AF71E433>
 DWORD nVertices;
 array Vector vertices[nVertices];
 DWORD nFaces;
 array MeshFace faces[nFaces];
 [...]
}

Header{
1;
0;
1;
}

Mesh {
 230;
 45.13225;89.71771;0.00000;,
 45.13225;88.50847;-15.36397;,
 49.88002;88.50847;-14.61207;,
 45.13225;89.71771;0.00000;,
 54.16302;88.50847;-12.42971;,
 45.13225;89.71771;0.00000;,
 57.56196;88.50847;-9.03077;,
 45.13225;89.71771;0.00000;,
 59.74432;88.50847;-4.74777;,
 45.13225;89.71771;0.00000;,
 60.49623;88.50847;0.00000;,
 45.13225;89.71771;0.00000;,
 59.74432;88.50847;4.74777;,
 45.13225;89.71771;0.00000;,
 57.56196;88.50847;9.03077;,
 45.13225;89.71771;0.00000;,
 54.16302;88.50847;12.42971;,
 45.13225;89.71771;0.00000;,
 49.88002;88.50847;14.61207;,
 45.13225;89.71771;0.00000;,
 45.13225;88.50847;15.36397;,
 45.13225;89.71771;0.00000;,
 40.38449;88.50847;14.61207;,
 45.13225;89.71771;0.00000;,
 36.10148;88.50847;12.42971;,
 45.13225;89.71771;0.00000;,
 32.70255;88.50847;9.03077;,
 45.13225;89.71771;0.00000;,
 30.52018;88.50847;4.74777;,
 45.13225;89.71771;0.00000;,
 29.76828;88.50847;0.00000;,
 45.13225;89.71771;0.00000;,
 30.52018;88.50847;-4.74777;,
 45.13225;89.71771;0.00000;,
 32.70255;88.50847;-9.03077;,
 45.13225;89.71771;0.00000;,
 36.10148;88.50847;-12.42971;,
 45.13225;89.71771;0.00000;,
 40.38449;88.50847;-14.61207;,
 45.13225;89.71771;0.00000;,
 45.13225;88.50847;-15.36397;,
 45.13225;84.91092;-30.34970;,
 54.51086;84.91092;-28.86431;,
 62.97133;84.91092;-24.55345;,
 69.68571;84.91092;-17.83907;,
 73.99656;84.91092;-9.37860;,
 75.48196;84.91092;0.00000;,
 73.99656;84.91092;9.37860;,
 69.68571;84.91092;17.83907;,
 62.97133;84.91092;24.55345;,
 54.51086;84.91092;28.86431;,
 45.13225;84.91092;30.34970;,
 35.75365;84.91092;28.86431;,
 27.29318;84.91092;24.55345;,
 20.57880;84.91092;17.83907;,
 16.26794;84.91092;9.37850;,
 14.78255;84.91092;0.00000;,
 16.26794;84.91092;-9.37860;,
 20.57880;84.91092;-17.83907;,
 27.29318;84.91092;-24.55345;,
 35.75375;84.91092;-28.86431;,
 45.13225;84.91092;-30.34970;,
 45.13225;79.01313;-44.58810;,
 58.91069;79.01313;-42.40586;,
 71.34049;79.01313;-36.07256;,
 81.20481;79.01313;-26.20823;,
 87.53811;79.01313;-13.77843;,
 89.72035;79.01313;0.00000;,
 87.53811;79.01313;13.77843;,
 81.20481;79.01313;26.20823;,
 71.34049;79.01313;36.07256;,
 58.91069;79.01313;42.40586;,
 45.13225;79.01313;44.58810;,
 31.35372;79.01313;42.40586;,
 18.92402;79.01313;36.07256;,
 9.05970;79.01313;26.20823;,
 2.72639;79.01313;13.77843;,
 0.54415;79.01313;0.00000;,
 2.72639;79.01313;-13.77853;,
 9.05979;79.01313;-26.20835;,
 18.92411;79.01313;-36.07256;,
 31.35382;79.01313;-42.40586;,
 45.13225;79.01313;-44.58810;,
 45.13225;70.96046;-57.72853;,
 62.97133;70.96046;-54.90306;,
 79.06432;70.96046;-46.70338;,
 91.83563;70.96046;-33.93207;,
 100.03531;70.96046;-17.83907;,
 102.86078;70.96046;0.00000;,
 100.03531;70.96046;17.83907;,
 91.83563;70.96046;33.93207;,
 79.06432;70.96046;46.70338;,
 62.97133;70.96046;54.90306;,
 45.13225;70.96046;57.72853;,
 27.29318;70.96046;54.90306;,
 11.20019;70.96046;46.70338;,
 -1.57113;70.96046;33.93194;,
 -9.77093;70.96046;17.83907;,
 -12.59627;70.96046;-0.00010;,
 -9.77082;70.96046;-17.83917;,
 -1.57113;70.96046;-33.93207;,
 11.20032;70.96046;-46.70338;,
 27.29318;70.96046;-54.90318;,
 45.13225;70.96046;-57.72853;,
 45.13225;60.95158;-69.44766;,
 66.59274;60.95158;-66.04857;,
 85.95258;60.95158;-56.18430;,
 101.31655;60.95158;-40.82032;,
 111.18082;60.95158;-21.46048;,
 114.57992;60.95158;0.00000;,
 111.18082;60.95158;21.46048;,
 101.31655;60.95158;40.82032;,
 85.95258;60.95158;56.18430;,
 66.59274;60.95158;66.04857;,
 45.13225;60.95158;69.44766;,
 23.67177;60.95158;66.04857;,
 4.31193;60.95158;56.18420;,
 -11.05204;60.95158;40.82021;,
 -20.91631;60.95158;21.46048;,
 -24.31540;60.95158;-0.00010;,
 -20.91631;60.95158;-21.46057;,
 -11.05194;60.95158;-40.82032;,
 4.31204;60.95158;-56.18438;,
 23.67189;60.95158;-66.04857;,
 45.13225;60.95158;-69.44766;,
 45.13225;49.23257;-79.45650;,
 69.68571;49.23257;-75.56766;,
 91.83563;49.23257;-64.28168;,
 109.41394;49.23257;-46.70338;,
 120.69994;49.23257;-24.55345;,
 124.58881;49.23257;0.00000;,
 120.69994;49.23257;24.55345;,
 109.41394;49.23257;46.70338;,
 91.83563;49.23257;64.28168;,
 69.68571;49.23257;75.56766;,
 45.13225;49.23257;79.45650;,
 20.57880;49.23257;75.56760;,
 -1.57113;49.23257;64.28168;,
 -19.14942;49.23257;46.70338;,
 -30.43541;49.23257;24.55335;,
 -34.32424;49.23257;-0.00010;,
 -30.43535;49.23257;-24.55345;,
 -19.14942;49.23257;-46.70352;,
 -1.57113;49.23257;-64.28177;,
 20.57890;49.23257;-75.56766;,
 45.13225;49.23257;-79.45650;,
 45.13225;36.09176;-87.50907;,
 72.17403;36.09176;-83.22609;,
 96.56877;36.09176;-70.79632;,
 115.92858;36.09176;-51.43652;,
 128.35841;36.09176;-27.04178;,
 132.64137;36.09176;0.00000;,
 128.35841;36.09176;27.04178;,
 115.92858;36.09176;51.43652;,
 96.56877;36.09176;70.79632;,
 72.17403;36.09176;83.22609;,
 45.13225;36.09176;87.50907;,
 18.09036;36.09176;83.22596;,
 -6.30438;36.09176;70.79632;,
 -25.66406;36.09176;51.43652;,
 -38.09384;36.09176;27.04167;,
 -42.37682;36.09176;-0.00010;,
 -38.09371;36.09176;-27.04189;,
 -25.66397;36.09176;-51.43663;,
 -6.30417;36.09176;-70.79632;,
 18.09058;36.09176;-83.22609;,
 45.13225;36.09176;-87.50907;,
 45.13225;21.85365;-93.40677;,
 73.99656;21.85365;-88.83516;,
 100.03531;21.85365;-75.56766;,
 120.69994;21.85365;-54.90306;,
 133.96747;21.85365;-28.86431;,
 138.53910;21.85365;0.00000;,
 133.96747;21.85365;28.86431;,
 120.69994;21.85365;54.90306;,
 100.03531;21.85365;75.56766;,
 73.99656;21.85365;88.83516;,
 45.13225;21.85365;93.40677;,
 16.26794;21.85365;88.83516;,
 -9.77093;21.85365;75.56760;,
 -30.43541;21.85365;54.90306;,
 -43.70291;21.85365;28.86422;,
 -48.27451;21.85365;-0.00010;,
 -43.70291;21.85365;-28.86443;,
 -30.43535;21.85365;-54.90326;,
 -9.77082;21.85365;-75.56783;,
 16.26813;21.85365;-88.83524;,
 45.13225;21.85365;-93.40677;,
 45.13225;6.86801;-97.00459;,
 75.10831;6.86801;-92.25681;,
 102.15007;6.86801;-78.47831;,
 123.61061;6.86801;-57.01782;,
 137.38913;6.86801;-29.97606;,
 142.13693;6.86801;0.00000;,
 137.38913;6.86801;29.97606;,
 123.61061;6.86801;57.01782;,
 102.15007;6.86801;78.47831;,
 75.10831;6.86801;92.25681;,
 45.13225;6.86801;97.00459;,
 15.15620;6.86801;92.25681;,
 -11.88568;6.86801;78.47831;,
 -33.34614;6.86801;57.01782;,
 -47.12456;6.86801;29.97595;,
 -51.87234;6.86801;-0.00010;,
 -47.12456;6.86801;-29.97615;,
 -33.34596;6.86801;-57.01794;,
 -11.88544;6.86801;-78.47839;,
 15.15630;6.86801;-92.25681;,
 45.13225;6.86801;-97.00459;,
 45.13225;-8.49632;-98.21372;,
 75.48196;-8.49632;-93.40677;,
 102.86078;-8.49632;-79.45650;,
 124.58881;-8.49632;-57.72853;,
 138.53910;-8.49632;-30.34970;,
 143.34606;-8.49632;-0.00000;,
 138.53910;-8.49632;30.34970;,
 124.58881;-8.49632;57.72853;,
 102.86078;-8.49632;79.45665;,
 75.48196;-8.49632;93.40677;,
 45.13225;-8.49632;98.21372;,
 14.78255;-8.49632;93.40677;,
 -12.59636;-8.49632;79.45650;,
 -34.32440;-8.49632;57.72853;,
 -48.27451;-8.49632;30.34959;,
 -53.08147;-8.49632;-0.00010;,
 -48.27451;-8.49632;-30.34982;,
 -34.32424;-8.49632;-57.72875;,
 -12.59618;-8.49632;-79.45665;,
 14.78266;-8.49632;-93.40677;,
 45.13225;-8.49632;-98.21372;;
 
 200;
 3;0,1,2;,
 3;3,2,4;,
 3;5,4,6;,
 3;7,6,8;,
 3;9,8,10;,
 3;11,10,12;,
 3;13,12,14;,
 3;15,14,16;,
 3;17,16,18;,
 3;19,18,20;,
 3;21,20,22;,
 3;23,22,24;,
 3;25,24,26;,
 3;27,26,28;,
 3;29,28,30;,
 3;31,30,32;,
 3;33,32,34;,
 3;35,34,36;,
 3;37,36,38;,
 3;39,38,40;,
 4;1,41,42,2;,
 4;2,42,43,4;,
 4;4,43,44,6;,
 4;6,44,45,8;,
 4;8,45,46,10;,
 4;10,46,47,12;,
 4;12,47,48,14;,
 4;14,48,49,16;,
 4;16,49,50,18;,
 4;18,50,51,20;,
 4;20,51,52,22;,
 4;22,52,53,24;,
 4;24,53,54,26;,
 4;26,54,55,28;,
 4;28,55,56,30;,
 4;30,56,57,32;,
 4;32,57,58,34;,
 4;34,58,59,36;,
 4;36,59,60,38;,
 4;38,60,61,40;,
 4;41,62,63,42;,
 4;42,63,64,43;,
 4;43,64,65,44;,
 4;44,65,66,45;,
 4;45,66,67,46;,
 4;46,67,68,47;,
 4;47,68,69,48;,
 4;48,69,70,49;,
 4;49,70,71,50;,
 4;50,71,72,51;,
 4;51,72,73,52;,
 4;52,73,74,53;,
 4;53,74,75,54;,
 4;54,75,76,55;,
 4;55,76,77,56;,
 4;56,77,78,57;,
 4;57,78,79,58;,
 4;58,79,80,59;,
 4;59,80,81,60;,
 4;60,81,82,61;,
 4;62,83,84,63;,
 4;63,84,85,64;,
 4;64,85,86,65;,
 4;65,86,87,66;,
 4;66,87,88,67;,
 4;67,88,89,68;,
 4;68,89,90,69;,
 4;69,90,91,70;,
 4;70,91,92,71;,
 4;71,92,93,72;,
 4;72,93,94,73;,
 4;73,94,95,74;,
 4;74,95,96,75;,
 4;75,96,97,76;,
 4;76,97,98,77;,
 4;77,98,99,78;,
 4;78,99,100,79;,
 4;79,100,101,80;,
 4;80,101,102,81;,
 4;81,102,103,82;,
 4;83,104,105,84;,
 4;84,105,106,85;,
 4;85,106,107,86;,
 4;86,107,108,87;,
 4;87,108,109,88;,
 4;88,109,110,89;,
 4;89,110,111,90;,
 4;90,111,112,91;,
 4;91,112,113,92;,
 4;92,113,114,93;,
 4;93,114,115,94;,
 4;94,115,116,95;,
 4;95,116,117,96;,
 4;96,117,118,97;,
 4;97,118,119,98;,
 4;98,119,120,99;,
 4;99,120,121,100;,
 4;100,121,122,101;,
 4;101,122,123,102;,
 4;102,123,124,103;,
 4;104,125,126,105;,
 4;105,126,127,106;,
 4;106,127,128,107;,
 4;107,128,129,108;,
 4;108,129,130,109;,
 4;109,130,131,110;,
 4;110,131,132,111;,
 4;111,132,133,112;,
 4;112,133,134,113;,
 4;113,134,135,114;,
 4;114,135,136,115;,
 4;115,136,137,116;,
 4;116,137,138,117;,
 4;117,138,139,118;,
 4;118,139,140,119;,
 4;119,140,141,120;,
 4;120,141,142,121;,
 4;121,142,143,122;,
 4;122,143,144,123;,
 4;123,144,145,124;,
 4;125,146,147,126;,
 4;126,147,148,127;,
 4;127,148,149,128;,
 4;128,149,150,129;,
 4;129,150,151,130;,
 4;130,151,152,131;,
 4;131,152,153,132;,
 4;132,153,154,133;,
 4;133,154,155,134;,
 4;134,155,156,135;,
 4;135,156,157,136;,
 4;136,157,158,137;,
 4;137,158,159,138;,
 4;138,159,160,139;,
 4;139,160,161,140;,
 4;140,161,162,141;,
 4;141,162,163,142;,
 4;142,163,164,143;,
 4;143,164,165,144;,
 4;144,165,166,145;,
 4;146,167,168,147;,
 4;147,168,169,148;,
 4;148,169,170,149;,
 4;149,170,171,150;,
 4;150,171,172,151;,
 4;151,172,173,152;,
 4;152,173,174,153;,
 4;153,174,175,154;,
 4;154,175,176,155;,
 4;155,176,177,156;,
 4;156,177,178,157;,
 4;157,178,179,158;,
 4;158,179,180,159;,
 4;159,180,181,160;,
 4;160,181,182,161;,
 4;161,182,183,162;,
 4;162,183,184,163;,
 4;163,184,185,164;,
 4;164,185,186,165;,
 4;165,186,187,166;,
 4;167,188,189,168;,
 4;168,189,190,169;,
 4;169,190,191,170;,
 4;170,191,192,171;,
 4;171,192,193,172;,
 4;172,193,194,173;,
 4;173,194,195,174;,
 4;174,195,196,175;,
 4;175,196,197,176;,
 4;176,197,198,177;,
 4;177,198,199,178;,
 4;178,199,200,179;,
 4;179,200,201,180;,
 4;180,201,202,181;,
 4;181,202,203,182;,
 4;182,203,204,183;,
 4;183,204,205,184;,
 4;184,205,206,185;,
 4;185,206,207,186;,
 4;186,207,208,187;,
 4;188,209,210,189;,
 4;189,210,211,190;,
 4;190,211,212,191;,
 4;191,212,213,192;,
 4;192,213,214,193;,
 4;193,214,215,194;,
 4;194,215,216,195;,
 4;195,216,217,196;,
 4;196,217,218,197;,
 4;197,218,219,198;,
 4;198,219,220,199;,
 4;199,220,221,200;,
 4;200,221,222,201;,
 4;201,222,223,202;,
 4;202,223,224,203;,
 4;203,224,225,204;,
 4;204,225,226,205;,
 4;205,226,227,206;,
 4;206,227,228,207;,
 4;207,228,229,208;;
 
 MeshMaterialList {
  1;
  200;
  0,
  0,
  0,
  0,
  0,
  0,
  0,
  0,
  0,
  0,
  0,
  0,
  0,
  0,
  0,
  0,
  0,
  0,
  0,
  0,
  0,
  0,
  0,
  0,
  0,
  0,
  0,
  0,
  0,
  0,
  0,
  0,
  0,
  0,
  0,
  0,
  0,
  0,
  0,
  0,
  0,
  0,
  0,
  0,
  0,
  0,
  0,
  0,
  0,
  0,
  0,
  0,
  0,
  0,
  0,
  0,
  0,
  0,
  0,
  0,
  0,
  0,
  0,
  0,
  0,
  0,
  0,
  0,
  0,
  0,
  0,
  0,
  0,
  0,
  0,
  0,
  0,
  0,
  0,
  0,
  0,
  0,
  0,
  0,
  0,
  0,
  0,
  0,
  0,
  0,
  0,
  0,
  0,
  0,
  0,
  0,
  0,
  0,
  0,
  0,
  0,
  0,
  0,
  0,
  0,
  0,
  0,
  0,
  0,
  0,
  0,
  0,
  0,
  0,
  0,
  0,
  0,
  0,
  0,
  0,
  0,
  0,
  0,
  0,
  0,
  0,
  0,
  0,
  0,
  0,
  0,
  0,
  0,
  0,
  0,
  0,
  0,
  0,
  0,
  0,
  0,
  0,
  0,
  0,
  0,
  0,
  0,
  0,
  0,
  0,
  0,
  0,
  0,
  0,
  0,
  0,
  0,
  0,
  0,
  0,
  0,
  0,
  0,
  0,
  0,
  0,
  0,
  0,
  0,
  0,
  0,
  0,
  0,
  0,
  0,
  0,
  0,
  0,
  0,
  0,
  0,
  0,
  0,
  0,
  0,
  0,
  0,
  0,
  0,
  0,
  0,
  0,
  0,
  0,
  0,
  0,
  0,
  0,
  0,
  0;;
  Material {
   0.800000;0.800000;0.800000;1.000000;;
   5.000000;
   0.000000;0.000000;0.000000;;
   0.000000;0.000000;0.000000;;
   TextureFilename {
    "sora.png";
   }
  }
 }
 MeshNormals {
  201;
  0.000000;-1.000000;-0.000000;,
  0.000000;-0.987693;0.156407;,
  -0.048332;-0.987693;0.148752;,
  -0.091934;-0.987693;0.126536;,
  -0.126536;-0.987693;0.091934;,
  -0.148752;-0.987693;0.048332;,
  -0.156407;-0.987693;0.000000;,
  -0.148752;-0.987693;-0.048332;,
  -0.126536;-0.987693;-0.091934;,
  -0.091934;-0.987693;-0.126536;,
  -0.048332;-0.987693;-0.148752;,
  0.000000;-0.987693;-0.156407;,
  0.048332;-0.987693;-0.148752;,
  0.091934;-0.987693;-0.126536;,
  0.126536;-0.987693;-0.091934;,
  0.148752;-0.987693;-0.048332;,
  0.156407;-0.987693;-0.000000;,
  0.148752;-0.987693;0.048332;,
  0.126536;-0.987693;0.091934;,
  0.091934;-0.987693;0.126536;,
  0.048332;-0.987693;0.148752;,
  0.000000;-0.951072;0.308970;,
  -0.095476;-0.951072;0.293847;,
  -0.181608;-0.951072;0.249961;,
  -0.249961;-0.951072;0.181608;,
  -0.293847;-0.951072;0.095476;,
  -0.308970;-0.951072;0.000000;,
  -0.293847;-0.951072;-0.095476;,
  -0.249961;-0.951072;-0.181608;,
  -0.181608;-0.951072;-0.249961;,
  -0.095476;-0.951072;-0.293847;,
  -0.000000;-0.951072;-0.308969;,
  0.095476;-0.951072;-0.293847;,
  0.181608;-0.951072;-0.249961;,
  0.249961;-0.951072;-0.181608;,
  0.293847;-0.951072;-0.095476;,
  0.308970;-0.951072;-0.000000;,
  0.293847;-0.951072;0.095477;,
  0.249961;-0.951072;0.181609;,
  0.181608;-0.951072;0.249962;,
  0.095476;-0.951072;0.293848;,
  -0.000000;-0.891031;0.453942;,
  -0.140275;-0.891031;0.431725;,
  -0.266820;-0.891032;0.367246;,
  -0.367246;-0.891032;0.266819;,
  -0.431725;-0.891031;0.140275;,
  -0.453942;-0.891031;0.000000;,
  -0.431725;-0.891031;-0.140275;,
  -0.367246;-0.891032;-0.266820;,
  -0.266820;-0.891032;-0.367246;,
  -0.140275;-0.891031;-0.431725;,
  -0.000000;-0.891031;-0.453942;,
  0.140275;-0.891031;-0.431725;,
  0.266820;-0.891032;-0.367246;,
  0.367246;-0.891032;-0.266820;,
  0.431724;-0.891032;-0.140275;,
  0.453942;-0.891031;0.000000;,
  0.431724;-0.891032;0.140276;,
  0.367245;-0.891032;0.266821;,
  0.266820;-0.891032;0.367246;,
  0.140275;-0.891032;0.431724;,
  -0.000001;-0.809059;0.587728;,
  -0.181617;-0.809059;0.558963;,
  -0.345457;-0.809059;0.475482;,
  -0.475482;-0.809059;0.345457;,
  -0.558963;-0.809058;0.181617;,
  -0.587728;-0.809059;0.000000;,
  -0.558963;-0.809059;-0.181617;,
  -0.475482;-0.809059;-0.345457;,
  -0.345457;-0.809059;-0.475482;,
  -0.181617;-0.809058;-0.558963;,
  -0.000000;-0.809059;-0.587728;,
  0.181618;-0.809058;-0.558963;,
  0.345459;-0.809058;-0.475483;,
  0.475483;-0.809058;-0.345458;,
  0.558963;-0.809058;-0.181618;,
  0.587728;-0.809058;0.000001;,
  0.558963;-0.809058;0.181619;,
  0.475482;-0.809058;0.345459;,
  0.345457;-0.809058;0.475483;,
  0.181618;-0.809059;0.558963;,
  -0.000000;-0.707162;0.707051;,
  -0.218491;-0.707162;0.672446;,
  -0.415594;-0.707162;0.572017;,
  -0.572017;-0.707162;0.415594;,
  -0.672445;-0.707163;0.218491;,
  -0.707050;-0.707163;0.000000;,
  -0.672445;-0.707163;-0.218491;,
  -0.572017;-0.707162;-0.415594;,
  -0.415594;-0.707162;-0.572017;,
  -0.218491;-0.707162;-0.672446;,
  0.000000;-0.707163;-0.707051;,
  0.218492;-0.707162;-0.672446;,
  0.415595;-0.707162;-0.572016;,
  0.572017;-0.707162;-0.415594;,
  0.672446;-0.707162;-0.218491;,
  0.707052;-0.707162;0.000001;,
  0.672446;-0.707162;0.218492;,
  0.572016;-0.707163;0.415594;,
  0.415593;-0.707163;0.572017;,
  0.218490;-0.707162;0.672446;,
  0.000000;-0.587839;0.808978;,
  -0.249988;-0.587839;0.769384;,
  -0.475506;-0.587838;0.654477;,
  -0.654477;-0.587839;0.475506;,
  -0.769383;-0.587840;0.249988;,
  -0.808977;-0.587840;0.000000;,
  -0.769383;-0.587840;-0.249988;,
  -0.654477;-0.587839;-0.475506;,
  -0.475506;-0.587838;-0.654477;,
  -0.249988;-0.587839;-0.769384;,
  0.000001;-0.587838;-0.808978;,
  0.249988;-0.587839;-0.769384;,
  0.475505;-0.587840;-0.654476;,
  0.654477;-0.587840;-0.475504;,
  0.769384;-0.587839;-0.249988;,
  0.808978;-0.587839;0.000001;,
  0.769384;-0.587838;0.249989;,
  0.654477;-0.587838;0.475506;,
  0.475504;-0.587838;0.654478;,
  0.249987;-0.587838;0.769385;,
  -0.000000;-0.454045;0.890979;,
  -0.275328;-0.454044;0.847372;,
  -0.523705;-0.454043;0.720818;,
  -0.720817;-0.454043;0.523706;,
  -0.847371;-0.454044;0.275328;,
  -0.890979;-0.454045;0.000000;,
  -0.847371;-0.454044;-0.275328;,
  -0.720817;-0.454043;-0.523706;,
  -0.523705;-0.454043;-0.720818;,
  -0.275328;-0.454044;-0.847372;,
  0.000001;-0.454045;-0.890979;,
  0.275328;-0.454045;-0.847371;,
  0.523705;-0.454044;-0.720817;,
  0.720818;-0.454043;-0.523704;,
  0.847372;-0.454044;-0.275327;,
  0.890979;-0.454045;0.000001;,
  0.847371;-0.454045;0.275328;,
  0.720817;-0.454044;0.523705;,
  0.523704;-0.454044;0.720818;,
  0.275327;-0.454045;0.847372;,
  -0.000000;-0.309063;0.951042;,
  -0.293889;-0.309063;0.904494;,
  -0.559009;-0.309063;0.769408;,
  -0.769408;-0.309063;0.559010;,
  -0.904494;-0.309063;0.293889;,
  -0.951041;-0.309064;0.000000;,
  -0.904494;-0.309063;-0.293889;,
  -0.769408;-0.309063;-0.559010;,
  -0.559009;-0.309063;-0.769409;,
  -0.293889;-0.309063;-0.904494;,
  0.000000;-0.309064;-0.951041;,
  0.293888;-0.309064;-0.904494;,
  0.559009;-0.309064;-0.769408;,
  0.769409;-0.309064;-0.559007;,
  0.904494;-0.309064;-0.293888;,
  0.951041;-0.309064;0.000000;,
  0.904493;-0.309065;0.293889;,
  0.769408;-0.309063;0.559009;,
  0.559007;-0.309063;0.769409;,
  0.293887;-0.309063;0.904495;,
  0.000000;-0.156456;0.987685;,
  -0.305212;-0.156456;0.939344;,
  -0.580547;-0.156457;0.799054;,
  -0.799053;-0.156457;0.580548;,
  -0.939344;-0.156457;0.305213;,
  -0.987685;-0.156457;0.000000;,
  -0.939344;-0.156457;-0.305213;,
  -0.799053;-0.156458;-0.580547;,
  -0.580547;-0.156459;-0.799053;,
  -0.305212;-0.156457;-0.939344;,
  0.000000;-0.156457;-0.987685;,
  0.305212;-0.156457;-0.939344;,
  0.580547;-0.156458;-0.799053;,
  0.799054;-0.156458;-0.580545;,
  0.939344;-0.156457;-0.305211;,
  0.987685;-0.156457;-0.000000;,
  0.939344;-0.156457;0.305213;,
  0.799053;-0.156456;0.580548;,
  0.580545;-0.156455;0.799055;,
  0.305211;-0.156455;0.939345;,
  0.000000;-0.078455;0.996918;,
  -0.308066;-0.078455;0.948125;,
  -0.585974;-0.078454;0.806523;,
  -0.806522;-0.078455;0.585975;,
  -0.948125;-0.078455;0.308066;,
  -0.996918;-0.078455;0.000000;,
  -0.948125;-0.078455;-0.308066;,
  -0.806523;-0.078456;-0.585974;,
  -0.585973;-0.078458;-0.806523;,
  -0.308065;-0.078457;-0.948125;,
  0.000000;-0.078455;-0.996918;,
  0.308065;-0.078455;-0.948125;,
  0.585973;-0.078454;-0.806524;,
  0.806524;-0.078455;-0.585972;,
  0.948125;-0.078455;-0.308063;,
  0.996918;-0.078455;-0.000000;,
  0.948124;-0.078457;0.308066;,
  0.806522;-0.078460;0.585975;,
  0.585971;-0.078459;0.806524;,
  0.308064;-0.078456;0.948125;;
  200;
  3;0,1,2;,
  3;0,2,3;,
  3;0,3,4;,
  3;0,4,5;,
  3;0,5,6;,
  3;0,6,7;,
  3;0,7,8;,
  3;0,8,9;,
  3;0,9,10;,
  3;0,10,11;,
  3;0,11,12;,
  3;0,12,13;,
  3;0,13,14;,
  3;0,14,15;,
  3;0,15,16;,
  3;0,16,17;,
  3;0,17,18;,
  3;0,18,19;,
  3;0,19,20;,
  3;0,20,1;,
  4;1,21,22,2;,
  4;2,22,23,3;,
  4;3,23,24,4;,
  4;4,24,25,5;,
  4;5,25,26,6;,
  4;6,26,27,7;,
  4;7,27,28,8;,
  4;8,28,29,9;,
  4;9,29,30,10;,
  4;10,30,31,11;,
  4;11,31,32,12;,
  4;12,32,33,13;,
  4;13,33,34,14;,
  4;14,34,35,15;,
  4;15,35,36,16;,
  4;16,36,37,17;,
  4;17,37,38,18;,
  4;18,38,39,19;,
  4;19,39,40,20;,
  4;20,40,21,1;,
  4;21,41,42,22;,
  4;22,42,43,23;,
  4;23,43,44,24;,
  4;24,44,45,25;,
  4;25,45,46,26;,
  4;26,46,47,27;,
  4;27,47,48,28;,
  4;28,48,49,29;,
  4;29,49,50,30;,
  4;30,50,51,31;,
  4;31,51,52,32;,
  4;32,52,53,33;,
  4;33,53,54,34;,
  4;34,54,55,35;,
  4;35,55,56,36;,
  4;36,56,57,37;,
  4;37,57,58,38;,
  4;38,58,59,39;,
  4;39,59,60,40;,
  4;40,60,41,21;,
  4;41,61,62,42;,
  4;42,62,63,43;,
  4;43,63,64,44;,
  4;44,64,65,45;,
  4;45,65,66,46;,
  4;46,66,67,47;,
  4;47,67,68,48;,
  4;48,68,69,49;,
  4;49,69,70,50;,
  4;50,70,71,51;,
  4;51,71,72,52;,
  4;52,72,73,53;,
  4;53,73,74,54;,
  4;54,74,75,55;,
  4;55,75,76,56;,
  4;56,76,77,57;,
  4;57,77,78,58;,
  4;58,78,79,59;,
  4;59,79,80,60;,
  4;60,80,61,41;,
  4;61,81,82,62;,
  4;62,82,83,63;,
  4;63,83,84,64;,
  4;64,84,85,65;,
  4;65,85,86,66;,
  4;66,86,87,67;,
  4;67,87,88,68;,
  4;68,88,89,69;,
  4;69,89,90,70;,
  4;70,90,91,71;,
  4;71,91,92,72;,
  4;72,92,93,73;,
  4;73,93,94,74;,
  4;74,94,95,75;,
  4;75,95,96,76;,
  4;76,96,97,77;,
  4;77,97,98,78;,
  4;78,98,99,79;,
  4;79,99,100,80;,
  4;80,100,81,61;,
  4;81,101,102,82;,
  4;82,102,103,83;,
  4;83,103,104,84;,
  4;84,104,105,85;,
  4;85,105,106,86;,
  4;86,106,107,87;,
  4;87,107,108,88;,
  4;88,108,109,89;,
  4;89,109,110,90;,
  4;90,110,111,91;,
  4;91,111,112,92;,
  4;92,112,113,93;,
  4;93,113,114,94;,
  4;94,114,115,95;,
  4;95,115,116,96;,
  4;96,116,117,97;,
  4;97,117,118,98;,
  4;98,118,119,99;,
  4;99,119,120,100;,
  4;100,120,101,81;,
  4;101,121,122,102;,
  4;102,122,123,103;,
  4;103,123,124,104;,
  4;104,124,125,105;,
  4;105,125,126,106;,
  4;106,126,127,107;,
  4;107,127,128,108;,
  4;108,128,129,109;,
  4;109,129,130,110;,
  4;110,130,131,111;,
  4;111,131,132,112;,
  4;112,132,133,113;,
  4;113,133,134,114;,
  4;114,134,135,115;,
  4;115,135,136,116;,
  4;116,136,137,117;,
  4;117,137,138,118;,
  4;118,138,139,119;,
  4;119,139,140,120;,
  4;120,140,121,101;,
  4;121,141,142,122;,
  4;122,142,143,123;,
  4;123,143,144,124;,
  4;124,144,145,125;,
  4;125,145,146,126;,
  4;126,146,147,127;,
  4;127,147,148,128;,
  4;128,148,149,129;,
  4;129,149,150,130;,
  4;130,150,151,131;,
  4;131,151,152,132;,
  4;132,152,153,133;,
  4;133,153,154,134;,
  4;134,154,155,135;,
  4;135,155,156,136;,
  4;136,156,157,137;,
  4;137,157,158,138;,
  4;138,158,159,139;,
  4;139,159,160,140;,
  4;140,160,141,121;,
  4;141,161,162,142;,
  4;142,162,163,143;,
  4;143,163,164,144;,
  4;144,164,165,145;,
  4;145,165,166,146;,
  4;146,166,167,147;,
  4;147,167,168,148;,
  4;148,168,169,149;,
  4;149,169,170,150;,
  4;150,170,171,151;,
  4;151,171,172,152;,
  4;152,172,173,153;,
  4;153,173,174,154;,
  4;154,174,175,155;,
  4;155,175,176,156;,
  4;156,176,177,157;,
  4;157,177,178,158;,
  4;158,178,179,159;,
  4;159,179,180,160;,
  4;160,180,161,141;,
  4;161,181,182,162;,
  4;162,182,183,163;,
  4;163,183,184,164;,
  4;164,184,185,165;,
  4;165,185,186,166;,
  4;166,186,187,167;,
  4;167,187,188,168;,
  4;168,188,189,169;,
  4;169,189,190,170;,
  4;170,190,191,171;,
  4;171,191,192,172;,
  4;172,192,193,173;,
  4;173,193,194,174;,
  4;174,194,195,175;,
  4;175,195,196,176;,
  4;176,196,197,177;,
  4;177,197,198,178;,
  4;178,198,199,179;,
  4;179,199,200,180;,
  4;180,200,181,161;;
 }
 MeshTextureCoords {
  230;
  0.025330;-0.000450;,
  0.000660;0.087060;,
  0.049990;0.087060;,
  0.074650;-0.000450;,
  0.099320;0.087060;,
  0.123980;-0.000450;,
  0.148650;0.087060;,
  0.173310;-0.000450;,
  0.197970;0.087060;,
  0.222640;-0.000450;,
  0.247300;0.087060;,
  0.271960;-0.000450;,
  0.296630;0.087060;,
  0.321290;-0.000450;,
  0.345960;0.087060;,
  0.370620;-0.000450;,
  0.395280;0.087060;,
  0.419950;-0.000450;,
  0.444610;0.087060;,
  0.469270;-0.000450;,
  0.493940;0.087060;,
  0.518600;-0.000450;,
  0.543260;0.087060;,
  0.567930;-0.000450;,
  0.592590;0.087060;,
  0.617260;-0.000450;,
  0.641920;0.087060;,
  0.666580;-0.000450;,
  0.691250;0.087060;,
  0.715910;-0.000450;,
  0.740570;0.087060;,
  0.765240;-0.000450;,
  0.789900;0.087060;,
  0.814560;-0.000450;,
  0.839230;0.087060;,
  0.863890;-0.000450;,
  0.888560;0.087060;,
  0.913220;-0.000450;,
  0.937880;0.087060;,
  0.962550;-0.000450;,
  0.987210;0.087060;,
  0.000660;0.174570;,
  0.049990;0.174570;,
  0.099320;0.174570;,
  0.148650;0.174570;,
  0.197970;0.174570;,
  0.247300;0.174570;,
  0.296630;0.174570;,
  0.345960;0.174570;,
  0.395280;0.174570;,
  0.444610;0.174570;,
  0.493940;0.174570;,
  0.543260;0.174570;,
  0.592590;0.174570;,
  0.641920;0.174570;,
  0.691250;0.174570;,
  0.740570;0.174570;,
  0.789900;0.174570;,
  0.839230;0.174570;,
  0.888560;0.174570;,
  0.937880;0.174570;,
  0.987210;0.174570;,
  0.000660;0.262090;,
  0.049990;0.262090;,
  0.099320;0.262090;,
  0.148650;0.262090;,
  0.197970;0.262090;,
  0.247300;0.262090;,
  0.296630;0.262090;,
  0.345960;0.262090;,
  0.395280;0.262090;,
  0.444610;0.262090;,
  0.493940;0.262090;,
  0.543260;0.262090;,
  0.592590;0.262090;,
  0.641920;0.262090;,
  0.691250;0.262090;,
  0.740570;0.262090;,
  0.789900;0.262090;,
  0.839230;0.262090;,
  0.888560;0.262090;,
  0.937880;0.262090;,
  0.987210;0.262090;,
  0.000660;0.349600;,
  0.049990;0.349600;,
  0.099320;0.349600;,
  0.148650;0.349600;,
  0.197970;0.349600;,
  0.247300;0.349600;,
  0.296630;0.349600;,
  0.345960;0.349600;,
  0.395280;0.349600;,
  0.444610;0.349600;,
  0.493940;0.349600;,
  0.543260;0.349600;,
  0.592590;0.349600;,
  0.641920;0.349600;,
  0.691250;0.349600;,
  0.740570;0.349600;,
  0.789900;0.349600;,
  0.839230;0.349600;,
  0.888560;0.349600;,
  0.937880;0.349600;,
  0.987210;0.349600;,
  0.000660;0.437110;,
  0.049990;0.437110;,
  0.099320;0.437110;,
  0.148650;0.437110;,
  0.197970;0.437110;,
  0.247300;0.437110;,
  0.296630;0.437110;,
  0.345960;0.437110;,
  0.395280;0.437110;,
  0.444610;0.437110;,
  0.493940;0.437110;,
  0.543260;0.437110;,
  0.592590;0.437110;,
  0.641920;0.437110;,
  0.691250;0.437110;,
  0.740570;0.437110;,
  0.789900;0.437110;,
  0.839230;0.437110;,
  0.888560;0.437110;,
  0.937880;0.437110;,
  0.987210;0.437110;,
  0.000660;0.524630;,
  0.049990;0.524630;,
  0.099320;0.524630;,
  0.148650;0.524630;,
  0.197970;0.524630;,
  0.247300;0.524630;,
  0.296630;0.524630;,
  0.345960;0.524630;,
  0.395280;0.524630;,
  0.444610;0.524630;,
  0.493940;0.524630;,
  0.543260;0.524630;,
  0.592590;0.524630;,
  0.641920;0.524630;,
  0.691250;0.524630;,
  0.740570;0.524630;,
  0.789900;0.524630;,
  0.839230;0.524630;,
  0.888560;0.524630;,
  0.937880;0.524630;,
  0.987210;0.524630;,
  0.000660;0.612140;,
  0.049990;0.612140;,
  0.099320;0.612140;,
  0.148650;0.612140;,
  0.197970;0.612140;,
  0.247300;0.612140;,
  0.296630;0.612140;,
  0.345960;0.612140;,
  0.395280;0.612140;,
  0.444610;0.612140;,
  0.493940;0.612140;,
  0.543260;0.612140;,
  0.592590;0.612140;,
  0.641920;0.612140;,
  0.691250;0.612140;,
  0.740570;0.612140;,
  0.789900;0.612140;,
  0.839230;0.612140;,
  0.888560;0.612140;,
  0.937880;0.612140;,
  0.987210;0.612140;,
  0.000660;0.699650;,
  0.049990;0.699650;,
  0.099320;0.699650;,
  0.148650;0.699650;,
  0.197970;0.699650;,
  0.247300;0.699650;,
  0.296630;0.699650;,
  0.345960;0.699650;,
  0.395280;0.699650;,
  0.444610;0.699650;,
  0.493940;0.699650;,
  0.543260;0.699650;,
  0.592590;0.699650;,
  0.641920;0.699650;,
  0.691250;0.699650;,
  0.740570;0.699650;,
  0.789900;0.699650;,
  0.839230;0.699650;,
  0.888560;0.699650;,
  0.937880;0.699650;,
  0.987210;0.699650;,
  0.000660;0.787170;,
  0.049990;0.787170;,
  0.099320;0.787170;,
  0.148650;0.787170;,
  0.197970;0.787170;,
  0.247300;0.787170;,
  0.296630;0.787170;,
  0.345960;0.787170;,
  0.395280;0.787170;,
  0.444610;0.787170;,
  0.493940;0.787170;,
  0.543260;0.787170;,
  0.592590;0.787170;,
  0.641920;0.787170;,
  0.691250;0.787170;,
  0.740570;0.787170;,
  0.789900;0.787170;,
  0.839230;0.787170;,
  0.888560;0.787170;,
  0.937880;0.787170;,
  0.987210;0.787170;,
  0.000660;0.874680;,
  0.049990;0.874680;,
  0.099320;0.874680;,
  0.148650;0.874680;,
  0.197970;0.874680;,
  0.247300;0.874680;,
  0.296630;0.874680;,
  0.345960;0.874680;,
  0.395280;0.874680;,
  0.444610;0.874680;,
  0.493940;0.874680;,
  0.543260;0.874680;,
  0.592590;0.874680;,
  0.641920;0.874680;,
  0.691250;0.874680;,
  0.740570;0.874680;,
  0.789900;0.874680;,
  0.839230;0.874680;,
  0.888560;0.874680;,
  0.937880;0.874680;,
  0.987210;0.874680;;
 }
 MeshVertexColors {
  230;
  0;1.000000;1.000000;1.000000;1.000000;,
  1;1.000000;1.000000;1.000000;1.000000;,
  2;1.000000;1.000000;1.000000;1.000000;,
  3;1.000000;1.000000;1.000000;1.000000;,
  4;1.000000;1.000000;1.000000;1.000000;,
  5;1.000000;1.000000;1.000000;1.000000;,
  6;1.000000;1.000000;1.000000;1.000000;,
  7;1.000000;1.000000;1.000000;1.000000;,
  8;1.000000;1.000000;1.000000;1.000000;,
  9;1.000000;1.000000;1.000000;1.000000;,
  10;1.000000;1.000000;1.000000;1.000000;,
  11;1.000000;1.000000;1.000000;1.000000;,
  12;1.000000;1.000000;1.000000;1.000000;,
  13;1.000000;1.000000;1.000000;1.000000;,
  14;1.000000;1.000000;1.000000;1.000000;,
  15;1.000000;1.000000;1.000000;1.000000;,
  16;1.000000;1.000000;1.000000;1.000000;,
  17;1.000000;1.000000;1.000000;1.000000;,
  18;1.000000;1.000000;1.000000;1.000000;,
  19;1.000000;1.000000;1.000000;1.000000;,
  20;1.000000;1.000000;1.000000;1.000000;,
  21;1.000000;1.000000;1.000000;1.000000;,
  22;1.000000;1.000000;1.000000;1.000000;,
  23;1.000000;1.000000;1.000000;1.000000;,
  24;1.000000;1.000000;1.000000;1.000000;,
  25;1.000000;1.000000;1.000000;1.000000;,
  26;1.000000;1.000000;1.000000;1.000000;,
  27;1.000000;1.000000;1.000000;1.000000;,
  28;1.000000;1.000000;1.000000;1.000000;,
  29;1.000000;1.000000;1.000000;1.000000;,
  30;1.000000;1.000000;1.000000;1.000000;,
  31;1.000000;1.000000;1.000000;1.000000;,
  32;1.000000;1.000000;1.000000;1.000000;,
  33;1.000000;1.000000;1.000000;1.000000;,
  34;1.000000;1.000000;1.000000;1.000000;,
  35;1.000000;1.000000;1.000000;1.000000;,
  36;1.000000;1.000000;1.000000;1.000000;,
  37;1.000000;1.000000;1.000000;1.000000;,
  38;1.000000;1.000000;1.000000;1.000000;,
  39;1.000000;1.000000;1.000000;1.000000;,
  40;1.000000;1.000000;1.000000;1.000000;,
  41;1.000000;1.000000;1.000000;1.000000;,
  42;1.000000;1.000000;1.000000;1.000000;,
  43;1.000000;1.000000;1.000000;1.000000;,
  44;1.000000;1.000000;1.000000;1.000000;,
  45;1.000000;1.000000;1.000000;1.000000;,
  46;1.000000;1.000000;1.000000;1.000000;,
  47;1.000000;1.000000;1.000000;1.000000;,
  48;1.000000;1.000000;1.000000;1.000000;,
  49;1.000000;1.000000;1.000000;1.000000;,
  50;1.000000;1.000000;1.000000;1.000000;,
  51;1.000000;1.000000;1.000000;1.000000;,
  52;1.000000;1.000000;1.000000;1.000000;,
  53;1.000000;1.000000;1.000000;1.000000;,
  54;1.000000;1.000000;1.000000;1.000000;,
  55;1.000000;1.000000;1.000000;1.000000;,
  56;1.000000;1.000000;1.000000;1.000000;,
  57;1.000000;1.000000;1.000000;1.000000;,
  58;1.000000;1.000000;1.000000;1.000000;,
  59;1.000000;1.000000;1.000000;1.000000;,
  60;1.000000;1.000000;1.000000;1.000000;,
  61;1.000000;1.000000;1.000000;1.000000;,
  62;1.000000;1.000000;1.000000;1.000000;,
  63;1.000000;1.000000;1.000000;1.000000;,
  64;1.000000;1.000000;1.000000;1.000000;,
  65;1.000000;1.000000;1.000000;1.000000;,
  66;1.000000;1.000000;1.000000;1.000000;,
  67;1.000000;1.000000;1.000000;1.000000;,
  68;1.000000;1.000000;1.000000;1.000000;,
  69;1.000000;1.000000;1.000000;1.000000;,
  70;1.000000;1.000000;1.000000;1.000000;,
  71;1.000000;1.000000;1.000000;1.000000;,
  72;1.000000;1.000000;1.000000;1.000000;,
  73;1.000000;1.000000;1.000000;1.000000;,
  74;1.000000;1.000000;1.000000;1.000000;,
  75;1.000000;1.000000;1.000000;1.000000;,
  76;1.000000;1.000000;1.000000;1.000000;,
  77;1.000000;1.000000;1.000000;1.000000;,
  78;1.000000;1.000000;1.000000;1.000000;,
  79;1.000000;1.000000;1.000000;1.000000;,
  80;1.000000;1.000000;1.000000;1.000000;,
  81;1.000000;1.000000;1.000000;1.000000;,
  82;1.000000;1.000000;1.000000;1.000000;,
  83;1.000000;1.000000;1.000000;1.000000;,
  84;1.000000;1.000000;1.000000;1.000000;,
  85;1.000000;1.000000;1.000000;1.000000;,
  86;1.000000;1.000000;1.000000;1.000000;,
  87;1.000000;1.000000;1.000000;1.000000;,
  88;1.000000;1.000000;1.000000;1.000000;,
  89;1.000000;1.000000;1.000000;1.000000;,
  90;1.000000;1.000000;1.000000;1.000000;,
  91;1.000000;1.000000;1.000000;1.000000;,
  92;1.000000;1.000000;1.000000;1.000000;,
  93;1.000000;1.000000;1.000000;1.000000;,
  94;1.000000;1.000000;1.000000;1.000000;,
  95;1.000000;1.000000;1.000000;1.000000;,
  96;1.000000;1.000000;1.000000;1.000000;,
  97;1.000000;1.000000;1.000000;1.000000;,
  98;1.000000;1.000000;1.000000;1.000000;,
  99;1.000000;1.000000;1.000000;1.000000;,
  100;1.000000;1.000000;1.000000;1.000000;,
  101;1.000000;1.000000;1.000000;1.000000;,
  102;1.000000;1.000000;1.000000;1.000000;,
  103;1.000000;1.000000;1.000000;1.000000;,
  104;1.000000;1.000000;1.000000;1.000000;,
  105;1.000000;1.000000;1.000000;1.000000;,
  106;1.000000;1.000000;1.000000;1.000000;,
  107;1.000000;1.000000;1.000000;1.000000;,
  108;1.000000;1.000000;1.000000;1.000000;,
  109;1.000000;1.000000;1.000000;1.000000;,
  110;1.000000;1.000000;1.000000;1.000000;,
  111;1.000000;1.000000;1.000000;1.000000;,
  112;1.000000;1.000000;1.000000;1.000000;,
  113;1.000000;1.000000;1.000000;1.000000;,
  114;1.000000;1.000000;1.000000;1.000000;,
  115;1.000000;1.000000;1.000000;1.000000;,
  116;1.000000;1.000000;1.000000;1.000000;,
  117;1.000000;1.000000;1.000000;1.000000;,
  118;1.000000;1.000000;1.000000;1.000000;,
  119;1.000000;1.000000;1.000000;1.000000;,
  120;1.000000;1.000000;1.000000;1.000000;,
  121;1.000000;1.000000;1.000000;1.000000;,
  122;1.000000;1.000000;1.000000;1.000000;,
  123;1.000000;1.000000;1.000000;1.000000;,
  124;1.000000;1.000000;1.000000;1.000000;,
  125;1.000000;1.000000;1.000000;1.000000;,
  126;1.000000;1.000000;1.000000;1.000000;,
  127;1.000000;1.000000;1.000000;1.000000;,
  128;1.000000;1.000000;1.000000;1.000000;,
  129;1.000000;1.000000;1.000000;1.000000;,
  130;1.000000;1.000000;1.000000;1.000000;,
  131;1.000000;1.000000;1.000000;1.000000;,
  132;1.000000;1.000000;1.000000;1.000000;,
  133;1.000000;1.000000;1.000000;1.000000;,
  134;1.000000;1.000000;1.000000;1.000000;,
  135;1.000000;1.000000;1.000000;1.000000;,
  136;1.000000;1.000000;1.000000;1.000000;,
  137;1.000000;1.000000;1.000000;1.000000;,
  138;1.000000;1.000000;1.000000;1.000000;,
  139;1.000000;1.000000;1.000000;1.000000;,
  140;1.000000;1.000000;1.000000;1.000000;,
  141;1.000000;1.000000;1.000000;1.000000;,
  142;1.000000;1.000000;1.000000;1.000000;,
  143;1.000000;1.000000;1.000000;1.000000;,
  144;1.000000;1.000000;1.000000;1.000000;,
  145;1.000000;1.000000;1.000000;1.000000;,
  146;1.000000;1.000000;1.000000;1.000000;,
  147;1.000000;1.000000;1.000000;1.000000;,
  148;1.000000;1.000000;1.000000;1.000000;,
  149;1.000000;1.000000;1.000000;1.000000;,
  150;1.000000;1.000000;1.000000;1.000000;,
  151;1.000000;1.000000;1.000000;1.000000;,
  152;1.000000;1.000000;1.000000;1.000000;,
  153;1.000000;1.000000;1.000000;1.000000;,
  154;1.000000;1.000000;1.000000;1.000000;,
  155;1.000000;1.000000;1.000000;1.000000;,
  156;1.000000;1.000000;1.000000;1.000000;,
  157;1.000000;1.000000;1.000000;1.000000;,
  158;1.000000;1.000000;1.000000;1.000000;,
  159;1.000000;1.000000;1.000000;1.000000;,
  160;1.000000;1.000000;1.000000;1.000000;,
  161;1.000000;1.000000;1.000000;1.000000;,
  162;1.000000;1.000000;1.000000;1.000000;,
  163;1.000000;1.000000;1.000000;1.000000;,
  164;1.000000;1.000000;1.000000;1.000000;,
  165;1.000000;1.000000;1.000000;1.000000;,
  166;1.000000;1.000000;1.000000;1.000000;,
  167;1.000000;1.000000;1.000000;1.000000;,
  168;1.000000;1.000000;1.000000;1.000000;,
  169;1.000000;1.000000;1.000000;1.000000;,
  170;1.000000;1.000000;1.000000;1.000000;,
  171;1.000000;1.000000;1.000000;1.000000;,
  172;1.000000;1.000000;1.000000;1.000000;,
  173;1.000000;1.000000;1.000000;1.000000;,
  174;1.000000;1.000000;1.000000;1.000000;,
  175;1.000000;1.000000;1.000000;1.000000;,
  176;1.000000;1.000000;1.000000;1.000000;,
  177;1.000000;1.000000;1.000000;1.000000;,
  178;1.000000;1.000000;1.000000;1.000000;,
  179;1.000000;1.000000;1.000000;1.000000;,
  180;1.000000;1.000000;1.000000;1.000000;,
  181;1.000000;1.000000;1.000000;1.000000;,
  182;1.000000;1.000000;1.000000;1.000000;,
  183;1.000000;1.000000;1.000000;1.000000;,
  184;1.000000;1.000000;1.000000;1.000000;,
  185;1.000000;1.000000;1.000000;1.000000;,
  186;1.000000;1.000000;1.000000;1.000000;,
  187;1.000000;1.000000;1.000000;1.000000;,
  188;1.000000;1.000000;1.000000;1.000000;,
  189;1.000000;1.000000;1.000000;1.000000;,
  190;1.000000;1.000000;1.000000;1.000000;,
  191;1.000000;1.000000;1.000000;1.000000;,
  192;1.000000;1.000000;1.000000;1.000000;,
  193;1.000000;1.000000;1.000000;1.000000;,
  194;1.000000;1.000000;1.000000;1.000000;,
  195;1.000000;1.000000;1.000000;1.000000;,
  196;1.000000;1.000000;1.000000;1.000000;,
  197;1.000000;1.000000;1.000000;1.000000;,
  198;1.000000;1.000000;1.000000;1.000000;,
  199;1.000000;1.000000;1.000000;1.000000;,
  200;1.000000;1.000000;1.000000;1.000000;,
  201;1.000000;1.000000;1.000000;1.000000;,
  202;1.000000;1.000000;1.000000;1.000000;,
  203;1.000000;1.000000;1.000000;1.000000;,
  204;1.000000;1.000000;1.000000;1.000000;,
  205;1.000000;1.000000;1.000000;1.000000;,
  206;1.000000;1.000000;1.000000;1.000000;,
  207;1.000000;1.000000;1.000000;1.000000;,
  208;1.000000;1.000000;1.000000;1.000000;,
  209;1.000000;1.000000;1.000000;1.000000;,
  210;1.000000;1.000000;1.000000;1.000000;,
  211;1.000000;1.000000;1.000000;1.000000;,
  212;1.000000;1.000000;1.000000;1.000000;,
  213;1.000000;1.000000;1.000000;1.000000;,
  214;1.000000;1.000000;1.000000;1.000000;,
  215;1.000000;1.000000;1.000000;1.000000;,
  216;1.000000;1.000000;1.000000;1.000000;,
  217;1.000000;1.000000;1.000000;1.000000;,
  218;1.000000;1.000000;1.000000;1.000000;,
  219;1.000000;1.000000;1.000000;1.000000;,
  220;1.000000;1.000000;1.000000;1.000000;,
  221;1.000000;1.000000;1.000000;1.000000;,
  222;1.000000;1.000000;1.000000;1.000000;,
  223;1.000000;1.000000;1.000000;1.000000;,
  224;1.000000;1.000000;1.000000;1.000000;,
  225;1.000000;1.000000;1.000000;1.000000;,
  226;1.000000;1.000000;1.000000;1.000000;,
  227;1.000000;1.000000;1.000000;1.000000;,
  228;1.000000;1.000000;1.000000;1.000000;,
  229;1.000000;1.000000;1.000000;1.000000;;
 }
}
