xof 0302txt 0064
template Header {
 <3D82AB43-62DA-11cf-AB39-0020AF71E433>
 WORD major;
 WORD minor;
 DWORD flags;
}

template Vector {
 <3D82AB5E-62DA-11cf-AB39-0020AF71E433>
 FLOAT x;
 FLOAT y;
 FLOAT z;
}

template Coords2d {
 <F6F23F44-7686-11cf-8F52-0040333594A3>
 FLOAT u;
 FLOAT v;
}

template Matrix4x4 {
 <F6F23F45-7686-11cf-8F52-0040333594A3>
 array FLOAT matrix[16];
}

template ColorRGBA {
 <35FF44E0-6C7C-11cf-8F52-0040333594A3>
 FLOAT red;
 FLOAT green;
 FLOAT blue;
 FLOAT alpha;
}

template ColorRGB {
 <D3E16E81-7835-11cf-8F52-0040333594A3>
 FLOAT red;
 FLOAT green;
 FLOAT blue;
}

template IndexedColor {
 <1630B820-7842-11cf-8F52-0040333594A3>
 DWORD index;
 ColorRGBA indexColor;
}

template Boolean {
 <4885AE61-78E8-11cf-8F52-0040333594A3>
 WORD truefalse;
}

template Boolean2d {
 <4885AE63-78E8-11cf-8F52-0040333594A3>
 Boolean u;
 Boolean v;
}

template MaterialWrap {
 <4885AE60-78E8-11cf-8F52-0040333594A3>
 Boolean u;
 Boolean v;
}

template TextureFilename {
 <A42790E1-7810-11cf-8F52-0040333594A3>
 STRING filename;
}

template Material {
 <3D82AB4D-62DA-11cf-AB39-0020AF71E433>
 ColorRGBA faceColor;
 FLOAT power;
 ColorRGB specularColor;
 ColorRGB emissiveColor;
 [...]
}

template MeshFace {
 <3D82AB5F-62DA-11cf-AB39-0020AF71E433>
 DWORD nFaceVertexIndices;
 array DWORD faceVertexIndices[nFaceVertexIndices];
}

template MeshFaceWraps {
 <4885AE62-78E8-11cf-8F52-0040333594A3>
 DWORD nFaceWrapValues;
 Boolean2d faceWrapValues;
}

template MeshTextureCoords {
 <F6F23F40-7686-11cf-8F52-0040333594A3>
 DWORD nTextureCoords;
 array Coords2d textureCoords[nTextureCoords];
}

template MeshMaterialList {
 <F6F23F42-7686-11cf-8F52-0040333594A3>
 DWORD nMaterials;
 DWORD nFaceIndexes;
 array DWORD faceIndexes[nFaceIndexes];
 [Material]
}

template MeshNormals {
 <F6F23F43-7686-11cf-8F52-0040333594A3>
 DWORD nNormals;
 array Vector normals[nNormals];
 DWORD nFaceNormals;
 array MeshFace faceNormals[nFaceNormals];
}

template MeshVertexColors {
 <1630B821-7842-11cf-8F52-0040333594A3>
 DWORD nVertexColors;
 array IndexedColor vertexColors[nVertexColors];
}

template Mesh {
 <3D82AB44-62DA-11cf-AB39-0020AF71E433>
 DWORD nVertices;
 array Vector vertices[nVertices];
 DWORD nFaces;
 array MeshFace faces[nFaces];
 [...]
}

Header{
1;
0;
1;
}

Mesh {
 210;
 -1.11903;-4.21918;10.85919;,
 -2.42618;-3.46304;10.78774;,
 -2.46167;-3.45992;11.46901;,
 -1.15453;-4.21606;11.54056;,
 0.72503;-3.81511;11.63652;,
 0.76051;-3.81823;10.95535;,
 -3.47422;3.23286;11.38554;,
 -4.19855;1.76811;11.35462;,
 -4.16306;1.76499;10.67335;,
 -3.43874;3.22974;10.70437;,
 -1.67022;3.98723;10.79302;,
 -1.70570;3.99035;11.47429;,
 2.54972;-3.05861;11.72820;,
 3.11939;-1.71602;11.75173;,
 3.15487;-1.71914;11.07046;,
 2.58521;-3.06173;11.04683;,
 0.26551;4.38720;10.89202;,
 1.61630;3.57085;10.96611;,
 1.58081;3.57397;11.64738;,
 0.23003;4.39032;11.57319;,
 2.71952;3.13128;11.70872;,
 1.58081;3.57397;11.64738;,
 1.61630;3.57085;10.96611;,
 2.75500;3.12817;11.02745;,
 3.34312;1.23961;11.06673;,
 3.30764;1.24273;11.74800;,
 -4.84854;0.75231;10.64218;,
 -4.16306;1.76499;10.67335;,
 -4.19855;1.76811;11.35462;,
 -4.88403;0.75542;11.32345;,
 -4.29590;-1.13313;11.36272;,
 -4.26042;-1.13625;10.68155;,
 -4.88403;0.75542;11.32345;,
 -4.19855;1.76811;11.35462;,
 -3.47422;3.23286;11.38554;,
 -2.89915;1.38621;11.42395;,
 -2.31947;-0.47523;11.46266;,
 -4.29590;-1.13313;11.36272;,
 -1.70570;3.99035;11.47429;,
 -1.07043;1.95040;11.51672;,
 -0.49652;0.10748;11.55495;,
 -4.84854;0.75231;10.64218;,
 -4.26042;-1.13625;10.68155;,
 -2.28399;-0.47835;10.78149;,
 -2.86367;1.38310;10.74278;,
 -3.43874;3.22974;10.70437;,
 -4.16306;1.76499;10.67335;,
 -0.46104;0.10436;10.87378;,
 -1.03495;1.94728;10.83545;,
 -1.67022;3.98723;10.79302;,
 0.23003;4.39032;11.57319;,
 0.80510;2.54367;11.61159;,
 1.38478;0.68222;11.65031;,
 1.58081;3.57397;11.64738;,
 2.71952;3.13128;11.70872;,
 3.30764;1.24273;11.74800;,
 1.42026;0.67911;10.96914;,
 0.84058;2.54055;10.93042;,
 0.26551;4.38720;10.89202;,
 3.34312;1.23961;11.06673;,
 2.75500;3.12817;11.02745;,
 1.61630;3.57085;10.96611;,
 3.81578;-0.27818;11.09829;,
 3.15487;-1.71914;11.07046;,
 3.11939;-1.71602;11.75173;,
 3.78030;-0.27506;11.77956;,
 -3.82324;-2.65092;11.39429;,
 -2.46167;-3.45992;11.46901;,
 -2.42618;-3.46304;10.78774;,
 -3.78776;-2.65404;10.71302;,
 -3.82324;-2.65092;11.39429;,
 -1.65926;-2.59527;11.50675;,
 -1.15453;-4.21606;11.54056;,
 -2.46167;-3.45992;11.46901;,
 0.15712;-1.99147;11.59860;,
 0.72503;-3.81511;11.63652;,
 -3.78776;-2.65404;10.71302;,
 -2.42618;-3.46304;10.78774;,
 -1.11903;-4.21918;10.85919;,
 -1.62378;-2.59839;10.82558;,
 0.76051;-3.81823;10.95535;,
 0.19260;-1.99459;10.91743;,
 2.04499;-1.43782;11.69440;,
 2.54972;-3.05861;11.72820;,
 3.78030;-0.27506;11.77956;,
 3.11939;-1.71602;11.75173;,
 2.58521;-3.06173;11.04683;,
 2.08047;-1.44093;11.01323;,
 3.15487;-1.71914;11.07046;,
 3.81578;-0.27818;11.09829;,
 -0.59053;-1.42855;10.97959;,
 0.02964;-1.53517;11.02310;,
 0.59466;-1.55854;0.01347;,
 -0.08827;-1.59648;-0.02193;,
 0.48030;-1.09395;11.03383;,
 1.17800;-1.20081;0.04222;,
 1.17650;-1.63593;-10.99493;,
 0.52819;-1.52684;-10.49837;,
 1.59902;-1.19224;-10.44412;,
 0.48030;-1.09395;11.03383;,
 0.17110;0.28251;11.02214;,
 0.80374;0.25063;0.01608;,
 1.17800;-1.20081;0.04222;,
 -0.35569;1.59054;10.97801;,
 0.28780;1.65780;-0.01723;,
 1.31796;0.18175;-10.99598;,
 1.59902;-1.19224;-10.44412;,
 0.76304;1.49225;-10.49995;,
 -0.35569;1.59054;10.97801;,
 -0.97698;1.69725;10.95587;,
 -0.39513;1.61986;-0.05263;,
 0.28780;1.65780;-0.01723;,
 -1.42652;1.25594;10.92376;,
 -0.97848;1.26213;-0.08138;,
 0.16988;1.59649;-11.06225;,
 0.76304;1.49225;-10.49995;,
 -0.30779;1.15765;-10.55420;,
 -1.42652;1.25594;10.92376;,
 -1.11843;-0.12043;10.95682;,
 -0.60421;-0.18931;-0.05524;,
 -0.97848;1.26213;-0.08138;,
 -0.59053;-1.42855;10.97959;,
 -0.08827;-1.59648;-0.02193;,
 0.02843;-0.22119;-11.06130;,
 -0.30779;1.15765;-10.55420;,
 0.52819;-1.52684;-10.49837;,
 -1.42652;1.25594;10.92376;,
 -0.97698;1.69725;10.95587;,
 -0.47422;0.08109;11.00007;,
 -1.11843;-0.12043;10.95682;,
 -0.35569;1.59054;10.97801;,
 0.17110;0.28251;11.02214;,
 0.02964;-1.53517;11.02310;,
 -0.59053;-1.42855;10.97959;,
 0.48030;-1.09395;11.03383;,
 0.52819;-1.52684;-10.49837;,
 1.17650;-1.63593;-10.99493;,
 0.70077;-0.02214;-11.55801;,
 0.02843;-0.22119;-11.06130;,
 1.59902;-1.19224;-10.44412;,
 1.31796;0.18175;-10.99598;,
 0.16988;1.59649;-11.06225;,
 -0.30779;1.15765;-10.55420;,
 0.76304;1.49225;-10.49995;,
 -1.04278;1.62014;28.41722;,
 -0.13412;1.54031;10.97225;,
 -0.00947;0.17962;10.98497;,
 -0.91813;0.25945;28.42994;,
 0.05632;-0.81200;10.99284;,
 -0.85235;-0.73216;28.43790;,
 -1.30882;-0.87480;28.41478;,
 -0.40016;-0.95463;10.96971;,
 -0.90889;-0.10142;10.93941;,
 -1.81755;-0.02158;28.38438;,
 -1.57867;1.08893;10.89907;,
 -2.48733;1.16877;28.34404;,
 -1.83496;0.34000;46.03170;,
 -2.72633;0.41828;63.14301;,
 -2.92220;1.78523;64.49763;,
 -1.95960;1.70069;46.01898;,
 -1.76917;-0.65161;46.03966;,
 -2.55686;-0.58241;61.16220;,
 -2.73437;0.05897;45.98613;,
 -3.62565;0.13727;63.09745;,
 -3.01334;-0.72504;61.13907;,
 -2.22565;-0.79425;46.01654;,
 -3.40415;1.24932;45.94580;,
 -4.36675;1.33385;64.42445;,
 -2.76927;-0.88619;62.19755;,
 -3.01334;-0.72504;61.13907;,
 -3.62565;0.13727;63.09745;,
 -3.22740;0.25485;64.20305;,
 -2.72633;0.41828;63.14301;,
 -2.55686;-0.58241;61.16220;,
 -4.36675;1.33385;64.42445;,
 -3.70676;1.56689;65.57068;,
 -2.92220;1.78523;64.49763;,
 -0.86249;1.31703;10.96668;,
 -1.57867;1.08893;10.89907;,
 -0.90889;-0.10142;10.93941;,
 -0.45589;0.01135;10.99383;,
 -0.00947;0.17962;10.98497;,
 -0.13412;1.54031;10.97225;,
 -0.40016;-0.95463;10.96971;,
 -0.10344;-1.12041;11.01737;,
 0.05632;-0.81200;10.99284;,
 -0.10344;-1.12041;11.01737;,
 -0.40016;-0.95463;10.96971;,
 -1.30882;-0.87480;28.41478;,
 -1.03042;-1.03897;28.81396;,
 -0.85235;-0.73216;28.43790;,
 0.05632;-0.81200;10.99284;,
 -0.86249;1.31703;10.96668;,
 -0.13412;1.54031;10.97225;,
 -1.04278;1.62014;28.41722;,
 -1.78947;1.39847;28.76327;,
 -2.48733;1.16877;28.34404;,
 -1.57867;1.08893;10.89907;,
 -2.76927;-0.88619;62.19755;,
 -2.55686;-0.58241;61.16220;,
 -1.76917;-0.65161;46.03966;,
 -1.96572;-0.95679;46.77042;,
 -2.22565;-0.79425;46.01654;,
 -3.01334;-0.72504;61.13907;,
 -3.70676;1.56689;65.57068;,
 -4.36675;1.33385;64.42445;,
 -3.40415;1.24932;45.94580;,
 -2.72476;1.48065;46.71964;,
 -1.95960;1.70069;46.01898;,
 -2.92220;1.78523;64.49763;;
 
 104;
 4;3,2,1,0;,
 4;5,4,3,0;,
 4;9,8,7,6;,
 4;11,10,9,6;,
 4;15,14,13,12;,
 4;4,5,15,12;,
 4;19,18,17,16;,
 4;10,11,19,16;,
 4;23,22,21,20;,
 4;25,24,23,20;,
 4;29,28,27,26;,
 4;31,30,29,26;,
 4;35,34,33,32;,
 4;37,36,35,32;,
 4;39,38,34,35;,
 4;36,40,39,35;,
 4;44,43,42,41;,
 4;46,45,44,41;,
 4;48,47,43,44;,
 4;45,49,48,44;,
 4;51,50,38,39;,
 4;40,52,51,39;,
 4;54,53,50,51;,
 4;52,55,54,51;,
 4;57,56,47,48;,
 4;49,58,57,48;,
 4;60,59,56,57;,
 4;58,61,60,57;,
 4;65,64,63,62;,
 4;24,25,65,62;,
 4;69,68,67,66;,
 4;30,31,69,66;,
 4;71,36,37,70;,
 4;73,72,71,70;,
 4;74,40,36,71;,
 4;72,75,74,71;,
 4;79,78,77,76;,
 4;42,43,79,76;,
 4;81,80,78,79;,
 4;43,47,81,79;,
 4;82,52,40,74;,
 4;75,83,82,74;,
 4;84,55,52,82;,
 4;83,85,84,82;,
 4;87,86,80,81;,
 4;47,56,87,81;,
 4;89,88,86,87;,
 4;56,59,89,87;,
 4;93,92,91,90;,
 4;92,95,94,91;,
 4;97,96,92,93;,
 4;96,98,95,92;,
 4;102,101,100,99;,
 4;101,104,103,100;,
 4;106,105,101,102;,
 4;105,107,104,101;,
 4;111,110,109,108;,
 4;110,113,112,109;,
 4;115,114,110,111;,
 4;114,116,113,110;,
 4;120,119,118,117;,
 4;119,122,121,118;,
 4;124,123,119,120;,
 4;123,125,122,119;,
 4;129,128,127,126;,
 4;128,131,130,127;,
 4;133,132,128,129;,
 4;132,134,131,128;,
 4;138,137,136,135;,
 4;137,140,139,136;,
 4;142,141,137,138;,
 4;141,143,140,137;,
 4;147,146,145,144;,
 4;149,148,146,147;,
 4;153,152,151,150;,
 4;155,154,152,153;,
 4;159,158,157,156;,
 4;147,144,159,156;,
 4;156,157,161,160;,
 4;149,147,156,160;,
 4;165,164,163,162;,
 4;153,150,165,162;,
 4;162,163,167,166;,
 4;155,153,162,166;,
 4;171,170,169,168;,
 4;173,172,171,168;,
 4;175,174,170,171;,
 4;172,176,175,171;,
 4;180,179,178,177;,
 4;182,181,180,177;,
 4;184,183,179,180;,
 4;181,185,184,180;,
 4;189,188,187,186;,
 4;191,190,189,186;,
 4;195,194,193,192;,
 4;197,196,195,192;,
 4;201,200,199,198;,
 4;203,202,201,198;,
 4;189,190,200,201;,
 4;202,188,189,201;,
 4;207,206,205,204;,
 4;209,208,207,204;,
 4;195,196,206,207;,
 4;208,194,195,207;;
 
 MeshMaterialList {
  1;
  104;
  0,
  0,
  0,
  0,
  0,
  0,
  0,
  0,
  0,
  0,
  0,
  0,
  0,
  0,
  0,
  0,
  0,
  0,
  0,
  0,
  0,
  0,
  0,
  0,
  0,
  0,
  0,
  0,
  0,
  0,
  0,
  0,
  0,
  0,
  0,
  0,
  0,
  0,
  0,
  0,
  0,
  0,
  0,
  0,
  0,
  0,
  0,
  0,
  0,
  0,
  0,
  0,
  0,
  0,
  0,
  0,
  0,
  0,
  0,
  0,
  0,
  0,
  0,
  0,
  0,
  0,
  0,
  0,
  0,
  0,
  0,
  0,
  0,
  0,
  0,
  0,
  0,
  0,
  0,
  0,
  0,
  0,
  0,
  0,
  0,
  0,
  0,
  0,
  0,
  0,
  0,
  0,
  0,
  0,
  0,
  0,
  0,
  0,
  0,
  0,
  0,
  0,
  0,
  0;;
  Material {
   0.800000;0.800000;0.800000;1.000000;;
   5.000000;
   0.000000;0.000000;0.000000;;
   0.000000;0.000000;0.000000;;
   TextureFilename {
    "Weapon.png";
   }
  }
 }
 MeshTextureCoords {
  210;
  0.023880;0.704840;,
  0.009290;0.704510;,
  0.008630;0.695960;,
  0.023320;0.696150;,
  0.059720;0.696620;,
  0.060050;0.705670;,
  0.095670;0.697150;,
  0.110360;0.697340;,
  0.110360;0.706880;,
  0.095770;0.706550;,
  0.059600;0.705720;,
  0.059270;0.696680;,
  0.093870;0.697060;,
  0.110470;0.697270;,
  0.110470;0.706810;,
  0.093980;0.706440;,
  0.025670;0.704950;,
  0.009170;0.704570;,
  0.008520;0.696020;,
  0.025110;0.696240;,
  0.083860;0.696960;,
  0.110470;0.697310;,
  0.110470;0.706850;,
  0.084030;0.706240;,
  0.060140;0.705700;,
  0.059810;0.696650;,
  0.035620;0.705210;,
  0.009170;0.704610;,
  0.008520;0.696050;,
  0.035130;0.696400;,
  0.059180;0.696710;,
  0.059510;0.705750;,
  0.308860;0.637060;,
  0.338220;0.614060;,
  0.368290;0.573450;,
  0.368890;0.636890;,
  0.369430;0.694210;,
  0.306890;0.694210;,
  0.417280;0.567720;,
  0.416880;0.634170;,
  0.416510;0.694210;,
  0.308860;0.637060;,
  0.306890;0.694210;,
  0.369430;0.694210;,
  0.368890;0.636890;,
  0.368290;0.573450;,
  0.338220;0.614060;,
  0.416510;0.694210;,
  0.416880;0.634170;,
  0.417280;0.567720;,
  0.468410;0.576800;,
  0.468210;0.638480;,
  0.468030;0.694210;,
  0.498420;0.613580;,
  0.517550;0.638260;,
  0.525740;0.694210;,
  0.468030;0.694210;,
  0.468210;0.638480;,
  0.468410;0.576800;,
  0.525740;0.694210;,
  0.517550;0.638260;,
  0.498420;0.613580;,
  0.032930;0.705080;,
  0.009290;0.704540;,
  0.008630;0.695990;,
  0.032420;0.696300;,
  0.086570;0.697060;,
  0.110360;0.697370;,
  0.110360;0.706910;,
  0.086720;0.706370;,
  0.309120;0.734290;,
  0.368820;0.757490;,
  0.368290;0.812470;,
  0.332490;0.770910;,
  0.416510;0.757950;,
  0.416510;0.813320;,
  0.309120;0.734290;,
  0.332490;0.770910;,
  0.368290;0.812470;,
  0.368820;0.757490;,
  0.416510;0.813320;,
  0.416510;0.757950;,
  0.467720;0.757230;,
  0.467450;0.811990;,
  0.526690;0.731360;,
  0.499850;0.769000;,
  0.467450;0.811990;,
  0.467720;0.757230;,
  0.499850;0.769000;,
  0.526690;0.731360;,
  0.043340;0.711170;,
  0.046030;0.711170;,
  0.046510;0.826970;,
  0.043810;0.826970;,
  0.048730;0.711170;,
  0.049200;0.826970;,
  0.046990;0.942760;,
  0.044290;0.942760;,
  0.049680;0.942760;,
  0.042600;0.710050;,
  0.060560;0.710050;,
  0.060980;0.837240;,
  0.043530;0.837140;,
  0.078510;0.710050;,
  0.078420;0.837330;,
  0.061400;0.964420;,
  0.044460;0.964240;,
  0.078330;0.964610;,
  0.043340;0.711170;,
  0.046030;0.711170;,
  0.046510;0.826970;,
  0.043810;0.826970;,
  0.048730;0.711170;,
  0.049200;0.826970;,
  0.046990;0.942760;,
  0.044290;0.942760;,
  0.049680;0.942760;,
  0.042600;0.710050;,
  0.060560;0.710050;,
  0.060980;0.837240;,
  0.043530;0.837140;,
  0.078510;0.710050;,
  0.078420;0.837330;,
  0.061400;0.964420;,
  0.044460;0.964240;,
  0.078330;0.964610;,
  0.044690;0.944710;,
  0.060900;0.944710;,
  0.060900;0.952320;,
  0.044690;0.952320;,
  0.077110;0.944710;,
  0.077110;0.952320;,
  0.060900;0.959930;,
  0.044690;0.959930;,
  0.077110;0.959930;,
  0.044690;0.944710;,
  0.060900;0.944710;,
  0.060900;0.952320;,
  0.044690;0.952320;,
  0.077110;0.944710;,
  0.077110;0.952320;,
  0.060900;0.959930;,
  0.044690;0.959930;,
  0.077110;0.959930;,
  0.084910;0.503250;,
  0.077740;0.699210;,
  0.058440;0.698520;,
  0.067570;0.505750;,
  0.043090;0.697960;,
  0.053780;0.507740;,
  0.084910;0.503250;,
  0.077740;0.699210;,
  0.062380;0.698660;,
  0.071110;0.505240;,
  0.043090;0.697960;,
  0.053780;0.507740;,
  0.078460;0.275870;,
  0.089340;0.038900;,
  0.102130;0.033130;,
  0.093470;0.269560;,
  0.066520;0.280900;,
  0.079420;0.051410;,
  0.081530;0.274580;,
  0.091780;0.035830;,
  0.102130;0.033130;,
  0.093470;0.269560;,
  0.066520;0.280900;,
  0.079420;0.051410;,
  0.374090;0.088990;,
  0.362790;0.088990;,
  0.362790;0.058080;,
  0.374090;0.058080;,
  0.387880;0.058080;,
  0.387880;0.088990;,
  0.362790;0.019230;,
  0.374090;0.019230;,
  0.387880;0.019230;,
  0.374090;0.197220;,
  0.362790;0.197220;,
  0.362790;0.158370;,
  0.374090;0.158370;,
  0.387880;0.158370;,
  0.387880;0.197220;,
  0.362790;0.127450;,
  0.374090;0.127450;,
  0.387880;0.127450;,
  0.045980;0.698700;,
  0.044130;0.698120;,
  0.054840;0.508620;,
  0.056700;0.508990;,
  0.058970;0.509440;,
  0.048250;0.699410;,
  0.046390;0.698820;,
  0.044130;0.698120;,
  0.054840;0.508620;,
  0.057110;0.509070;,
  0.058970;0.509440;,
  0.048250;0.699410;,
  0.082410;0.053880;,
  0.084680;0.053700;,
  0.071750;0.282890;,
  0.069480;0.282760;,
  0.067620;0.282640;,
  0.080550;0.054020;,
  0.082820;0.053850;,
  0.084680;0.053700;,
  0.071750;0.282890;,
  0.069890;0.282780;,
  0.067620;0.282640;,
  0.080550;0.054020;;
 }
}
