xof 0302txt 0064
template Header {
 <3D82AB43-62DA-11cf-AB39-0020AF71E433>
 WORD major;
 WORD minor;
 DWORD flags;
}

template Vector {
 <3D82AB5E-62DA-11cf-AB39-0020AF71E433>
 FLOAT x;
 FLOAT y;
 FLOAT z;
}

template Coords2d {
 <F6F23F44-7686-11cf-8F52-0040333594A3>
 FLOAT u;
 FLOAT v;
}

template Matrix4x4 {
 <F6F23F45-7686-11cf-8F52-0040333594A3>
 array FLOAT matrix[16];
}

template ColorRGBA {
 <35FF44E0-6C7C-11cf-8F52-0040333594A3>
 FLOAT red;
 FLOAT green;
 FLOAT blue;
 FLOAT alpha;
}

template ColorRGB {
 <D3E16E81-7835-11cf-8F52-0040333594A3>
 FLOAT red;
 FLOAT green;
 FLOAT blue;
}

template IndexedColor {
 <1630B820-7842-11cf-8F52-0040333594A3>
 DWORD index;
 ColorRGBA indexColor;
}

template Boolean {
 <4885AE61-78E8-11cf-8F52-0040333594A3>
 WORD truefalse;
}

template Boolean2d {
 <4885AE63-78E8-11cf-8F52-0040333594A3>
 Boolean u;
 Boolean v;
}

template MaterialWrap {
 <4885AE60-78E8-11cf-8F52-0040333594A3>
 Boolean u;
 Boolean v;
}

template TextureFilename {
 <A42790E1-7810-11cf-8F52-0040333594A3>
 STRING filename;
}

template Material {
 <3D82AB4D-62DA-11cf-AB39-0020AF71E433>
 ColorRGBA faceColor;
 FLOAT power;
 ColorRGB specularColor;
 ColorRGB emissiveColor;
 [...]
}

template MeshFace {
 <3D82AB5F-62DA-11cf-AB39-0020AF71E433>
 DWORD nFaceVertexIndices;
 array DWORD faceVertexIndices[nFaceVertexIndices];
}

template MeshFaceWraps {
 <4885AE62-78E8-11cf-8F52-0040333594A3>
 DWORD nFaceWrapValues;
 Boolean2d faceWrapValues;
}

template MeshTextureCoords {
 <F6F23F40-7686-11cf-8F52-0040333594A3>
 DWORD nTextureCoords;
 array Coords2d textureCoords[nTextureCoords];
}

template MeshMaterialList {
 <F6F23F42-7686-11cf-8F52-0040333594A3>
 DWORD nMaterials;
 DWORD nFaceIndexes;
 array DWORD faceIndexes[nFaceIndexes];
 [Material]
}

template MeshNormals {
 <F6F23F43-7686-11cf-8F52-0040333594A3>
 DWORD nNormals;
 array Vector normals[nNormals];
 DWORD nFaceNormals;
 array MeshFace faceNormals[nFaceNormals];
}

template MeshVertexColors {
 <1630B821-7842-11cf-8F52-0040333594A3>
 DWORD nVertexColors;
 array IndexedColor vertexColors[nVertexColors];
}

template Mesh {
 <3D82AB44-62DA-11cf-AB39-0020AF71E433>
 DWORD nVertices;
 array Vector vertices[nVertices];
 DWORD nFaces;
 array MeshFace faces[nFaces];
 [...]
}

Header{
1;
0;
1;
}

Mesh {
 177;
 -0.00895;-0.00385;-0.06047;,
 -0.00879;0.00072;-0.06047;,
 -0.03520;0.00042;-0.15185;,
 -0.02716;-0.00795;-0.15185;,
 -0.00863;0.00530;-0.06047;,
 -0.02716;0.00879;-0.15185;,
 -0.02730;-0.00847;0.05574;,
 -0.02730;0.00042;0.05574;,
 -0.01786;0.00042;0.04167;,
 -0.01786;-0.00847;0.04167;,
 -0.02730;0.00930;0.05574;,
 -0.01786;0.00930;0.04167;,
 -0.01700;-0.00847;0.09881;,
 -0.01700;0.00042;0.09881;,
 -0.02730;0.00042;0.08446;,
 -0.02730;-0.00847;0.08446;,
 -0.01700;0.00930;0.09881;,
 -0.02730;0.00930;0.08446;,
 -0.00550;-0.00397;-0.06047;,
 -0.01016;-0.01011;-0.15185;,
 0.00051;-0.01116;-0.15185;,
 -0.00001;-0.00462;-0.06047;,
 -0.00518;0.00518;-0.06047;,
 0.00034;0.00544;-0.06047;,
 0.00051;0.01199;-0.15185;,
 -0.01016;0.01095;-0.15185;,
 -0.01822;-0.00847;0.05574;,
 -0.02730;-0.00847;0.05574;,
 -0.01786;-0.00847;0.04167;,
 -0.01084;-0.00847;0.03902;,
 0.00033;-0.00935;0.03902;,
 0.00051;-0.00935;0.04788;,
 -0.01822;0.00930;0.05574;,
 0.00051;0.01019;0.04799;,
 0.00033;0.01019;0.03902;,
 -0.01084;0.00930;0.03902;,
 -0.01786;0.00930;0.04167;,
 -0.02730;0.00930;0.05574;,
 -0.01084;-0.00847;0.10071;,
 -0.01700;-0.00847;0.09881;,
 -0.02730;-0.00847;0.08446;,
 -0.01822;-0.00847;0.08446;,
 0.00051;-0.00935;0.09217;,
 0.00032;-0.00935;0.10222;,
 -0.01084;-0.00847;0.10071;,
 0.00032;-0.00935;0.10222;,
 0.00032;0.00042;0.10222;,
 -0.01084;0.00042;0.10071;,
 -0.01084;0.00930;0.10071;,
 0.00032;0.01019;0.10222;,
 0.00051;0.01019;0.09230;,
 -0.01822;0.00930;0.08446;,
 -0.02730;0.00930;0.08446;,
 -0.01700;0.00930;0.09881;,
 0.00032;0.01019;0.10222;,
 -0.01084;0.00930;0.10071;,
 0.00862;-0.00492;-0.06047;,
 0.02716;-0.00795;-0.15185;,
 0.03520;0.00042;-0.15185;,
 0.00879;0.00011;-0.06047;,
 0.02716;0.00879;-0.15185;,
 0.00897;0.00514;-0.06047;,
 0.02729;-0.00847;0.05574;,
 0.01786;-0.00847;0.04167;,
 0.01786;0.00042;0.04167;,
 0.02729;0.00042;0.05574;,
 0.01786;0.00930;0.04167;,
 0.02729;0.00930;0.05574;,
 0.01699;-0.00847;0.09881;,
 0.02729;-0.00847;0.08446;,
 0.02729;0.00042;0.08446;,
 0.01699;0.00042;0.09881;,
 0.02729;0.00930;0.08446;,
 0.01699;0.00930;0.09881;,
 0.00516;-0.00480;-0.06047;,
 0.01016;-0.01011;-0.15185;,
 0.00551;0.00526;-0.06047;,
 0.01016;0.01095;-0.15185;,
 0.01822;-0.00847;0.05574;,
 0.01084;-0.00847;0.03902;,
 0.01786;-0.00847;0.04167;,
 0.02729;-0.00847;0.05574;,
 0.01822;0.00930;0.05574;,
 0.01084;0.00930;0.03902;,
 0.02729;0.00930;0.05574;,
 0.01786;0.00930;0.04167;,
 0.01084;-0.00847;0.10071;,
 0.01822;-0.00847;0.08446;,
 0.02729;-0.00847;0.08446;,
 0.01699;-0.00847;0.09881;,
 0.01084;-0.00847;0.10071;,
 0.01084;0.00042;0.10071;,
 0.01084;0.00930;0.10071;,
 0.01822;0.00930;0.08446;,
 0.01699;0.00930;0.09881;,
 0.02729;0.00930;0.08446;,
 0.01084;0.00930;0.10071;,
 -0.03299;0.00042;0.06979;,
 -0.03299;-0.00847;0.06979;,
 -0.03299;0.00930;0.06979;,
 -0.03299;-0.00847;0.06979;,
 -0.02202;-0.00847;0.06979;,
 -0.02202;0.00930;0.06979;,
 -0.03299;0.00930;0.06979;,
 0.03299;-0.00847;0.06979;,
 0.03299;0.00042;0.06979;,
 0.03299;0.00930;0.06979;,
 0.02202;-0.00847;0.06979;,
 0.03299;-0.00847;0.06979;,
 0.03299;0.00930;0.06979;,
 0.02202;0.00930;0.06979;,
 -0.01822;-0.00847;0.08446;,
 -0.01822;0.00930;0.08446;,
 0.00051;0.01019;0.09230;,
 0.00051;-0.00935;0.09217;,
 0.01822;0.00930;0.08446;,
 0.01822;-0.00847;0.08446;,
 0.02202;0.00930;0.06979;,
 0.02202;-0.00847;0.06979;,
 0.01822;0.00930;0.05574;,
 0.01822;-0.00847;0.05574;,
 0.00051;0.01019;0.04799;,
 0.00051;-0.00935;0.04788;,
 -0.01822;0.00930;0.05574;,
 -0.01822;-0.00847;0.05574;,
 -0.02202;0.00930;0.06979;,
 -0.02202;-0.00847;0.06979;,
 -0.00879;0.00072;0.03886;,
 -0.00879;0.00072;-0.06047;,
 -0.00895;-0.00385;-0.06047;,
 -0.00895;-0.00385;0.03886;,
 -0.00879;0.00072;0.03886;,
 -0.00895;-0.00385;0.03886;,
 -0.00863;0.00530;0.03886;,
 -0.00863;0.00530;-0.06047;,
 -0.00863;0.00530;0.03886;,
 -0.00895;-0.00385;0.03886;,
 -0.00550;-0.00397;0.03886;,
 -0.00550;-0.00397;0.03886;,
 -0.01084;-0.00847;0.03902;,
 -0.00001;-0.00462;0.03886;,
 -0.00001;-0.00462;0.03886;,
 0.00033;-0.00935;0.03902;,
 0.00034;0.00544;0.03886;,
 -0.00518;0.00518;0.03886;,
 0.00034;0.00544;0.03886;,
 -0.00518;0.00518;0.03886;,
 -0.01084;0.00930;0.03902;,
 0.00033;0.01019;0.03902;,
 -0.00863;0.00530;0.03886;,
 0.00862;-0.00492;0.03886;,
 0.00862;-0.00492;-0.06047;,
 0.00879;0.00011;-0.06047;,
 0.00879;0.00011;0.03886;,
 0.00862;-0.00492;0.03886;,
 0.00879;0.00011;0.03886;,
 0.00897;0.00514;-0.06047;,
 0.00897;0.00514;0.03886;,
 0.00897;0.00514;0.03886;,
 0.00516;-0.00480;0.03886;,
 0.00862;-0.00492;0.03886;,
 0.00516;-0.00480;0.03886;,
 0.01084;-0.00847;0.03902;,
 0.00551;0.00526;0.03886;,
 0.00551;0.00526;0.03886;,
 0.01084;0.00930;0.03902;,
 0.00897;0.00514;0.03886;,
 -0.00000;0.00042;-0.30042;,
 -0.00311;0.00922;-0.01041;,
 -0.02280;0.00733;0.01496;,
 0.05242;0.01359;0.05839;,
 0.07211;0.01548;0.03302;,
 0.08574;0.01359;0.00067;,
 0.01052;0.00733;-0.04276;,
 0.11883;-0.00922;0.09673;,
 0.13852;-0.00733;0.07136;,
 0.15215;-0.00922;0.03901;;
 
 216;
 4;0,1,2,3;,
 4;1,4,5,2;,
 4;6,7,8,9;,
 4;7,10,11,8;,
 4;12,13,14,15;,
 4;13,16,17,14;,
 4;18,0,3,19;,
 4;18,19,20,21;,
 4;22,23,24,25;,
 4;22,25,5,4;,
 4;26,27,28,29;,
 4;26,29,30,31;,
 4;32,33,34,35;,
 4;32,35,36,37;,
 4;38,39,40,41;,
 4;38,41,42,43;,
 4;44,45,46,47;,
 4;44,47,13,12;,
 4;48,49,50,51;,
 4;48,51,52,53;,
 4;47,46,54,55;,
 4;47,55,16,13;,
 4;56,57,58,59;,
 4;59,58,60,61;,
 4;62,63,64,65;,
 4;65,64,66,67;,
 4;68,69,70,71;,
 4;71,70,72,73;,
 4;74,75,57,56;,
 4;74,21,20,75;,
 4;76,77,24,23;,
 4;76,61,60,77;,
 4;78,79,80,81;,
 4;78,31,30,79;,
 4;82,83,34,33;,
 4;82,84,85,83;,
 4;86,87,88,89;,
 4;86,43,42,87;,
 4;90,91,46,45;,
 4;90,68,71,91;,
 4;92,93,50,49;,
 4;92,94,95,93;,
 4;91,96,54,46;,
 4;91,71,73,96;,
 4;97,7,6,98;,
 4;97,98,15,14;,
 4;99,10,7,97;,
 4;99,97,14,17;,
 4;100,27,26,101;,
 4;100,101,41,40;,
 4;102,32,37,103;,
 4;102,103,52,51;,
 4;104,62,65,105;,
 4;104,105,70,69;,
 4;105,65,67,106;,
 4;105,106,72,70;,
 4;107,78,81,108;,
 4;107,108,88,87;,
 4;109,84,82,110;,
 4;109,110,93,95;,
 4;111,112,113,114;,
 4;114,113,115,116;,
 4;117,118,116,115;,
 4;118,117,119,120;,
 4;120,119,121,122;,
 4;121,123,124,122;,
 4;123,125,126,124;,
 4;126,125,112,111;,
 4;127,128,129,130;,
 4;131,132,9,8;,
 4;133,134,128,127;,
 4;135,131,8,11;,
 4;136,0,18,137;,
 4;132,138,139,9;,
 4;137,18,21,140;,
 4;138,141,142,139;,
 4;143,23,22,144;,
 4;145,146,147,148;,
 4;144,22,4,149;,
 4;146,135,11,147;,
 4;150,151,152,153;,
 4;154,155,64,63;,
 4;153,152,156,157;,
 4;155,158,66,64;,
 4;159,74,56,160;,
 4;161,154,63,162;,
 4;140,21,74,159;,
 4;141,161,162,142;,
 4;163,76,23,143;,
 4;164,145,148,165;,
 4;166,61,76,163;,
 4;158,164,165,66;,
 3;167,3,2;,
 3;167,2,5;,
 3;167,5,25;,
 3;167,25,24;,
 3;167,19,3;,
 3;167,20,19;,
 3;167,58,57;,
 3;167,60,58;,
 3;167,77,60;,
 3;167,24,77;,
 3;167,57,75;,
 3;167,75,20;,
 4;3,2,1,0;,
 4;2,5,4,1;,
 4;9,8,7,6;,
 4;8,11,10,7;,
 4;15,14,13,12;,
 4;14,17,16,13;,
 4;19,3,0,18;,
 4;21,20,19,18;,
 4;25,24,23,22;,
 4;4,5,25,22;,
 4;29,28,27,26;,
 4;31,30,29,26;,
 4;35,34,33,32;,
 4;37,36,35,32;,
 4;41,40,39,38;,
 4;43,42,41,38;,
 4;47,46,45,44;,
 4;12,13,47,44;,
 4;51,50,49,48;,
 4;53,52,51,48;,
 4;55,54,46,47;,
 4;13,16,55,47;,
 4;59,58,57,56;,
 4;61,60,58,59;,
 4;65,64,63,62;,
 4;67,66,64,65;,
 4;71,70,69,68;,
 4;73,72,70,71;,
 4;56,57,75,74;,
 4;75,20,21,74;,
 4;23,24,77,76;,
 4;77,60,61,76;,
 4;81,80,79,78;,
 4;79,30,31,78;,
 4;33,34,83,82;,
 4;83,85,84,82;,
 4;89,88,87,86;,
 4;87,42,43,86;,
 4;45,46,91,90;,
 4;91,71,68,90;,
 4;49,50,93,92;,
 4;93,95,94,92;,
 4;46,54,96,91;,
 4;96,73,71,91;,
 4;98,6,7,97;,
 4;14,15,98,97;,
 4;97,7,10,99;,
 4;17,14,97,99;,
 4;101,26,27,100;,
 4;40,41,101,100;,
 4;103,37,32,102;,
 4;51,52,103,102;,
 4;105,65,62,104;,
 4;69,70,105,104;,
 4;106,67,65,105;,
 4;70,72,106,105;,
 4;108,81,78,107;,
 4;87,88,108,107;,
 4;110,82,84,109;,
 4;95,93,110,109;,
 4;114,113,112,111;,
 4;116,115,113,114;,
 4;115,116,118,117;,
 4;120,119,117,118;,
 4;122,121,119,120;,
 4;122,124,123,121;,
 4;124,126,125,123;,
 4;111,112,125,126;,
 4;130,129,128,127;,
 4;8,9,132,131;,
 4;127,128,134,133;,
 4;11,8,131,135;,
 4;137,18,0,136;,
 4;9,139,138,132;,
 4;140,21,18,137;,
 4;139,142,141,138;,
 4;144,22,23,143;,
 4;148,147,146,145;,
 4;149,4,22,144;,
 4;147,11,135,146;,
 4;153,152,151,150;,
 4;63,64,155,154;,
 4;157,156,152,153;,
 4;64,66,158,155;,
 4;160,56,74,159;,
 4;162,63,154,161;,
 4;159,74,21,140;,
 4;142,162,161,141;,
 4;143,23,76,163;,
 4;165,148,145,164;,
 4;163,76,61,166;,
 4;66,165,164,158;,
 3;2,3,167;,
 3;5,2,167;,
 3;25,5,167;,
 3;24,25,167;,
 3;3,19,167;,
 3;19,20,167;,
 3;57,58,167;,
 3;58,60,167;,
 3;60,77,167;,
 3;77,24,167;,
 3;75,57,167;,
 3;20,75,167;,
 4;168,169,170,171;,
 4;168,171,172,173;,
 4;171,170,174,175;,
 4;171,175,176,172;,
 4;175,174,170,171;,
 4;175,171,172,176;,
 4;171,170,169,168;,
 4;171,168,173,172;;
 
 MeshMaterialList {
  1;
  216;
  0,
  0,
  0,
  0,
  0,
  0,
  0,
  0,
  0,
  0,
  0,
  0,
  0,
  0,
  0,
  0,
  0,
  0,
  0,
  0,
  0,
  0,
  0,
  0,
  0,
  0,
  0,
  0,
  0,
  0,
  0,
  0,
  0,
  0,
  0,
  0,
  0,
  0,
  0,
  0,
  0,
  0,
  0,
  0,
  0,
  0,
  0,
  0,
  0,
  0,
  0,
  0,
  0,
  0,
  0,
  0,
  0,
  0,
  0,
  0,
  0,
  0,
  0,
  0,
  0,
  0,
  0,
  0,
  0,
  0,
  0,
  0,
  0,
  0,
  0,
  0,
  0,
  0,
  0,
  0,
  0,
  0,
  0,
  0,
  0,
  0,
  0,
  0,
  0,
  0,
  0,
  0,
  0,
  0,
  0,
  0,
  0,
  0,
  0,
  0,
  0,
  0,
  0,
  0,
  0,
  0,
  0,
  0,
  0,
  0,
  0,
  0,
  0,
  0,
  0,
  0,
  0,
  0,
  0,
  0,
  0,
  0,
  0,
  0,
  0,
  0,
  0,
  0,
  0,
  0,
  0,
  0,
  0,
  0,
  0,
  0,
  0,
  0,
  0,
  0,
  0,
  0,
  0,
  0,
  0,
  0,
  0,
  0,
  0,
  0,
  0,
  0,
  0,
  0,
  0,
  0,
  0,
  0,
  0,
  0,
  0,
  0,
  0,
  0,
  0,
  0,
  0,
  0,
  0,
  0,
  0,
  0,
  0,
  0,
  0,
  0,
  0,
  0,
  0,
  0,
  0,
  0,
  0,
  0,
  0,
  0,
  0,
  0,
  0,
  0,
  0,
  0,
  0,
  0,
  0,
  0,
  0,
  0,
  0,
  0,
  0,
  0,
  0,
  0,
  0,
  0,
  0,
  0,
  0,
  0,
  0,
  0,
  0,
  0,
  0,
  0;;
  Material {
   0.800000;0.800000;0.800000;1.000000;;
   5.000000;
   0.000000;0.000000;0.000000;;
   0.000000;0.000000;0.000000;;
   TextureFilename {
    "Weapon.png";
   }
  }
 }
 MeshNormals {
  263;
  -0.071090;-0.997328;0.016847;,
  -0.645751;0.763451;-0.012165;,
  -0.654380;-0.756079;-0.011483;,
  0.002248;0.999990;-0.003897;,
  -0.015210;-0.999876;-0.004047;,
  -0.963429;-0.248519;0.100212;,
  -0.971010;0.212418;0.109626;,
  -0.980734;-0.160726;0.111032;,
  -0.003471;0.999386;0.034852;,
  -0.055760;-0.997841;0.034709;,
  -0.993317;0.026632;0.112301;,
  -0.462572;-0.018946;-0.886379;,
  -0.464607;0.015768;-0.885377;,
  0.002279;0.999910;-0.013202;,
  0.002288;-0.999909;-0.013258;,
  -0.597618;0.002749;-0.801777;,
  -0.883327;0.000000;-0.468757;,
  -0.883327;0.000000;-0.468757;,
  -0.879299;0.000000;0.476270;,
  0.002350;0.999903;0.013717;,
  0.002342;-0.999904;0.013677;,
  -0.879299;0.000000;0.476270;,
  -0.583908;0.000000;0.811820;,
  -0.583908;0.000000;0.811820;,
  0.004032;0.000000;0.999992;,
  -0.085468;0.996323;-0.005916;,
  -0.102846;-0.994690;-0.003886;,
  -0.032730;0.998917;0.033060;,
  -0.084911;-0.995771;0.035075;,
  -0.034100;0.999401;-0.005961;,
  -0.034182;-0.999398;-0.005982;,
  -0.022732;0.999734;-0.003974;,
  -0.022786;-0.999732;-0.003988;,
  -0.022806;0.999731;0.004141;,
  -0.022795;-0.999732;0.004132;,
  -0.034212;0.999395;0.006212;,
  -0.034194;-0.999396;0.006198;,
  -0.215061;0.000000;0.976601;,
  0.654397;0.756064;-0.011488;,
  0.645760;-0.763443;-0.012160;,
  0.957305;-0.271391;0.099574;,
  0.980737;0.160708;0.111031;,
  0.971040;-0.212280;0.109629;,
  0.993319;-0.026569;0.112300;,
  0.464679;-0.017035;-0.885315;,
  0.462400;0.021796;-0.886403;,
  0.597624;-0.002742;-0.801772;,
  0.883327;0.000000;-0.468757;,
  0.883327;0.000000;-0.468757;,
  0.879299;0.000000;0.476270;,
  0.879299;0.000000;0.476270;,
  0.583908;0.000000;0.811820;,
  0.583908;0.000000;0.811820;,
  0.583908;0.000000;0.811820;,
  0.096395;0.995327;-0.005670;,
  0.078998;-0.996844;-0.007851;,
  0.055366;0.997906;0.033439;,
  0.003006;-0.999506;0.031277;,
  0.036378;0.999312;-0.007217;,
  0.036469;-0.999308;-0.007252;,
  0.024250;0.999694;-0.004811;,
  0.024311;-0.999693;-0.004834;,
  0.024372;0.999690;0.004986;,
  0.024355;-0.999691;0.004968;,
  0.036560;0.999303;0.007480;,
  0.036535;-0.999305;0.007453;,
  0.218997;0.000000;0.975725;,
  -0.999972;0.000000;-0.007414;,
  -0.999973;0.000000;-0.007414;,
  -0.999973;0.000000;-0.007414;,
  0.000000;1.000000;0.000000;,
  0.000000;-1.000000;-0.000000;,
  0.999972;0.000000;-0.007414;,
  0.999973;0.000000;-0.007414;,
  0.999973;0.000000;-0.007414;,
  -0.999389;0.034959;0.000000;,
  -0.999389;0.034944;0.000000;,
  -0.006328;0.999980;0.000000;,
  -0.076018;-0.997106;0.000000;,
  -0.999389;0.034951;0.000000;,
  -0.006368;0.999980;0.000000;,
  -0.076022;-0.997106;0.000000;,
  0.999388;-0.034969;-0.000000;,
  0.999395;-0.034770;-0.000000;,
  0.999392;-0.034869;-0.000000;,
  0.034886;0.999391;0.000000;,
  -0.034981;-0.999388;0.000000;,
  0.197957;0.954082;0.224813;,
  0.289752;0.954806;0.066252;,
  -0.086870;0.996196;0.006865;,
  -0.039633;0.996397;-0.074980;,
  0.056472;0.991433;0.117775;,
  0.127145;0.991874;-0.004437;,
  0.244884;0.958474;0.146147;,
  -0.063322;0.997411;-0.034096;,
  0.092039;0.994134;0.056810;,
  -0.057711;-0.997733;0.034622;,
  -0.080332;-0.994364;0.069185;,
  -0.045679;0.997007;0.062379;,
  -0.005496;0.999497;0.031230;,
  0.004032;0.000000;0.999992;,
  0.045525;-0.997311;0.057426;,
  0.005279;-0.999573;0.028748;,
  0.057734;0.997814;0.032151;,
  0.080388;0.994691;0.064252;,
  0.218997;0.000000;0.975725;,
  0.218997;0.000000;0.975725;,
  0.754981;0.001744;-0.655744;,
  -0.010020;0.003377;-0.999944;,
  -0.761493;0.001716;-0.648171;,
  -0.999986;0.000000;0.005352;,
  -0.758436;-0.001351;0.651747;,
  -0.010287;-0.002661;0.999944;,
  0.751713;-0.001367;0.659489;,
  0.999986;0.000000;0.005351;,
  -0.296293;0.005183;-0.955083;,
  -0.239577;0.022254;-0.970622;,
  -0.236260;-0.026727;-0.971322;,
  -0.034990;-0.999388;0.000000;,
  -0.091831;0.002886;-0.995770;,
  -0.001138;-0.034959;-0.999388;,
  -0.000050;0.034705;-0.999398;,
  -0.090310;-0.012045;-0.995841;,
  0.034701;0.999398;0.000000;,
  0.235940;0.030745;-0.971281;,
  0.296307;-0.005171;-0.955079;,
  0.239678;-0.024043;-0.970555;,
  -0.034980;-0.999388;0.000000;,
  0.089508;0.015115;-0.995871;,
  0.091202;-0.003987;-0.995824;,
  0.034990;0.999388;0.000000;,
  -0.071092;0.997328;0.016843;,
  -0.710792;0.682941;-0.168420;,
  0.710792;-0.682941;-0.168420;,
  0.710792;0.682941;-0.168420;,
  0.654380;0.756079;0.011483;,
  0.963429;0.248519;-0.100212;,
  0.993317;-0.026632;-0.112301;,
  0.980734;0.160726;-0.111032;,
  0.645751;-0.763451;0.012165;,
  0.971010;-0.212418;-0.109626;,
  0.464607;-0.015768;0.885377;,
  0.597618;-0.002749;0.801777;,
  0.883327;0.000000;0.468757;,
  0.883327;0.000000;0.468757;,
  0.462572;0.018946;0.886379;,
  0.879299;0.000000;-0.476270;,
  0.879299;0.000000;-0.476270;,
  0.583908;0.000000;-0.811820;,
  0.583908;0.000000;-0.811820;,
  0.102846;0.994690;0.003886;,
  0.080332;0.994364;-0.069185;,
  0.057711;0.997733;-0.034622;,
  0.084911;0.995771;-0.035075;,
  0.055760;0.997841;-0.034709;,
  0.015210;0.999876;0.004047;,
  0.085468;-0.996323;0.005916;,
  -0.002248;-0.999990;0.003897;,
  0.003471;-0.999386;-0.034852;,
  0.032730;-0.998917;-0.033060;,
  0.005496;-0.999497;-0.031230;,
  0.045679;-0.997007;-0.062379;,
  0.034182;0.999398;0.005982;,
  0.022786;0.999732;0.003988;,
  -0.002288;0.999909;0.013258;,
  0.034100;-0.999401;0.005961;,
  -0.002279;-0.999910;0.013202;,
  0.022732;-0.999734;0.003974;,
  0.022795;0.999732;-0.004132;,
  0.034194;0.999396;-0.006198;,
  -0.002342;0.999904;-0.013677;,
  0.215061;0.000000;-0.976601;,
  -0.004032;0.000000;-0.999992;,
  -0.004032;0.000000;-0.999992;,
  0.022806;-0.999731;-0.004141;,
  -0.002350;-0.999903;-0.013717;,
  0.034212;-0.999395;-0.006212;,
  -0.993319;0.026569;-0.112300;,
  -0.957305;0.271391;-0.099574;,
  -0.645760;0.763443;0.012160;,
  -0.971040;0.212280;-0.109629;,
  -0.980737;-0.160708;-0.111031;,
  -0.654397;-0.756064;0.011488;,
  -0.883327;0.000000;0.468757;,
  -0.597624;0.002742;0.801772;,
  -0.462400;-0.021796;0.886403;,
  -0.883327;0.000000;0.468757;,
  -0.464679;0.017035;0.885315;,
  -0.583908;0.000000;-0.811820;,
  -0.879299;0.000000;-0.476270;,
  -0.879299;0.000000;-0.476270;,
  -0.583908;0.000000;-0.811820;,
  -0.583908;0.000000;-0.811820;,
  -0.005279;0.999573;-0.028748;,
  -0.045525;0.997311;-0.057426;,
  -0.078998;0.996844;0.007851;,
  -0.003006;0.999506;-0.031277;,
  -0.096395;-0.995327;0.005670;,
  -0.055366;-0.997906;-0.033439;,
  -0.080388;-0.994691;-0.064252;,
  -0.057734;-0.997814;-0.032151;,
  -0.036469;0.999308;0.007252;,
  -0.024311;0.999693;0.004834;,
  -0.036378;-0.999312;0.007217;,
  -0.024250;-0.999694;0.004811;,
  -0.024355;0.999691;-0.004968;,
  -0.036535;0.999305;-0.007453;,
  -0.218997;0.000000;-0.975725;,
  -0.218997;0.000000;-0.975725;,
  -0.024372;-0.999690;-0.004986;,
  -0.036560;-0.999303;-0.007480;,
  -0.218997;0.000000;-0.975725;,
  0.999973;0.000000;0.007414;,
  0.999973;0.000000;0.007414;,
  0.999972;0.000000;0.007414;,
  -0.999973;0.000000;0.007414;,
  -0.999973;0.000000;0.007414;,
  -0.999972;0.000000;0.007414;,
  0.010020;-0.003377;0.999944;,
  -0.754981;-0.001744;0.655744;,
  0.761493;-0.001716;0.648171;,
  0.999986;0.000000;-0.005352;,
  0.758436;0.001351;-0.651747;,
  0.010287;0.002661;-0.999944;,
  -0.751713;0.001367;-0.659489;,
  -0.999986;0.000000;-0.005351;,
  0.999389;-0.034944;-0.000000;,
  0.999389;-0.034951;-0.000000;,
  0.239577;-0.022254;0.970622;,
  0.296293;-0.005183;0.955083;,
  0.999389;-0.034959;-0.000000;,
  0.236260;0.026727;0.971322;,
  0.076022;0.997106;0.000000;,
  0.091831;-0.002886;0.995770;,
  0.076018;0.997106;0.000000;,
  0.001138;0.034959;0.999388;,
  0.006368;-0.999980;-0.000000;,
  0.006328;-0.999980;-0.000000;,
  0.000050;-0.034705;0.999398;,
  0.090310;0.012045;0.995841;,
  -0.034701;-0.999398;0.000000;,
  -0.999392;0.034869;0.000000;,
  -0.999395;0.034770;0.000000;,
  -0.296307;0.005171;0.955079;,
  -0.235940;-0.030745;0.971281;,
  -0.999388;0.034969;0.000000;,
  -0.239678;0.024043;0.970555;,
  0.034980;0.999388;0.000000;,
  0.034981;0.999388;0.000000;,
  -0.089508;-0.015115;0.995871;,
  -0.034886;-0.999391;0.000000;,
  -0.091202;0.003987;0.995824;,
  0.710792;-0.682941;0.168420;,
  -0.710792;-0.682941;0.168420;,
  -0.244884;-0.958474;-0.146147;,
  -0.197957;-0.954082;-0.224813;,
  -0.056472;-0.991433;-0.117775;,
  -0.092039;-0.994134;-0.056810;,
  -0.127145;-0.991874;0.004437;,
  -0.289752;-0.954806;-0.066252;,
  0.086870;-0.996196;-0.006865;,
  0.063322;-0.997411;0.034096;,
  0.039633;-0.996397;0.074980;;
  216;
  4;7,10,5,2;,
  4;10,6,1,5;,
  4;16,17,15,12;,
  4;17,16,11,15;,
  4;22,23,21,18;,
  4;23,22,18,21;,
  4;28,96,97,26;,
  4;28,26,4,9;,
  4;27,8,3,25;,
  4;27,25,98,99;,
  4;32,71,71,30;,
  4;32,30,14,14;,
  4;31,13,13,29;,
  4;31,29,70,70;,
  4;36,71,71,34;,
  4;36,34,20,20;,
  4;37,100,24,37;,
  4;37,37,23,22;,
  4;35,19,19,33;,
  4;35,33,70,70;,
  4;37,24,100,37;,
  4;37,37,22,23;,
  4;42,39,40,43;,
  4;43,40,38,41;,
  4;47,45,46,48;,
  4;48,46,44,47;,
  4;52,49,50,53;,
  4;53,50,49,51;,
  4;57,55,101,102;,
  4;57,9,4,55;,
  4;56,54,3,8;,
  4;56,103,104,54;,
  4;61,59,71,71;,
  4;61,14,14,59;,
  4;60,58,13,13;,
  4;60,70,70,58;,
  4;65,63,71,71;,
  4;65,20,20,63;,
  4;105,66,24,100;,
  4;105,52,53,66;,
  4;64,62,19,19;,
  4;64,70,70,62;,
  4;66,106,100,24;,
  4;66,53,51,106;,
  4;69,17,16,68;,
  4;69,68,18,21;,
  4;67,16,17,69;,
  4;67,69,21,18;,
  4;71,71,32,71;,
  4;71,71,34,71;,
  4;70,31,70,70;,
  4;70,70,70,33;,
  4;73,47,48,74;,
  4;73,74,50,49;,
  4;74,48,47,72;,
  4;74,72,49,50;,
  4;71,61,71,71;,
  4;71,71,71,63;,
  4;70,70,60,70;,
  4;70,70,62,70;,
  4;107,107,108,108;,
  4;108,108,109,109;,
  4;110,110,109,109;,
  4;110,110,111,111;,
  4;111,111,112,112;,
  4;112,113,113,112;,
  4;113,114,114,113;,
  4;114,114,107,107;,
  4;79,10,7,76;,
  4;115,116,12,15;,
  4;75,6,10,79;,
  4;117,115,15,11;,
  4;118,96,28,81;,
  4;116,119,119,12;,
  4;81,28,9,78;,
  4;119,120,120,119;,
  4;77,8,27,80;,
  4;121,122,122,121;,
  4;80,27,99,123;,
  4;122,117,11,122;,
  4;83,42,43,84;,
  4;124,125,46,45;,
  4;84,43,41,82;,
  4;125,126,44,46;,
  4;86,57,102,127;,
  4;128,124,45,128;,
  4;78,9,57,86;,
  4;120,128,128,120;,
  4;85,56,8,77;,
  4;129,121,121,129;,
  4;130,103,56,85;,
  4;126,129,129,44;,
  3;0,2,5;,
  3;131,132,1;,
  3;131,1,25;,
  3;131,25,3;,
  3;0,26,2;,
  3;0,4,26;,
  3;133,40,39;,
  3;134,38,134;,
  3;131,54,38;,
  3;131,3,54;,
  3;0,39,55;,
  3;0,55,4;,
  4;135,136,137,138;,
  4;136,139,140,137;,
  4;141,142,143,144;,
  4;142,145,144,143;,
  4;146,147,148,149;,
  4;147,146,149,148;,
  4;150,151,152,153;,
  4;154,155,150,153;,
  4;156,157,158,159;,
  4;160,161,156,159;,
  4;162,70,70,163;,
  4;164,164,162,163;,
  4;165,166,166,167;,
  4;71,71,165,167;,
  4;168,70,70,169;,
  4;170,170,168,169;,
  4;171,172,173,171;,
  4;149,148,171,171;,
  4;174,175,175,176;,
  4;71,71,174,176;,
  4;171,173,172,171;,
  4;148,149,171,171;,
  4;177,178,179,180;,
  4;181,182,178,177;,
  4;183,184,185,186;,
  4;186,187,184,183;,
  4;188,189,190,191;,
  4;192,190,189,188;,
  4;193,194,195,196;,
  4;195,155,154,196;,
  4;158,157,197,198;,
  4;197,199,200,198;,
  4;70,70,201,202;,
  4;201,164,164,202;,
  4;166,166,203,204;,
  4;203,71,71,204;,
  4;70,70,205,206;,
  4;205,170,170,206;,
  4;173,172,207,208;,
  4;207,188,191,208;,
  4;175,175,209,210;,
  4;209,71,71,210;,
  4;172,173,211,207;,
  4;211,192,188,207;,
  4;212,144,143,213;,
  4;147,146,212,213;,
  4;213,143,144,214;,
  4;146,147,213,214;,
  4;70,163,70,70;,
  4;70,168,70,70;,
  4;71,71,167,71;,
  4;174,71,71,71;,
  4;215,183,186,216;,
  4;190,189,215,216;,
  4;217,186,183,215;,
  4;189,190,217,215;,
  4;70,70,202,70;,
  4;205,70,70,70;,
  4;71,204,71,71;,
  4;71,209,71,71;,
  4;218,218,219,219;,
  4;220,220,218,218;,
  4;220,220,221,221;,
  4;222,222,221,221;,
  4;223,223,222,222;,
  4;223,224,224,223;,
  4;224,225,225,224;,
  4;219,219,225,225;,
  4;226,138,137,227;,
  4;142,141,228,229;,
  4;227,137,140,230;,
  4;145,142,229,231;,
  4;232,153,152,130;,
  4;141,233,233,228;,
  4;234,154,153,232;,
  4;233,235,235,233;,
  4;236,159,158,237;,
  4;238,239,239,238;,
  4;240,160,159,236;,
  4;239,145,231,239;,
  4;241,177,180,242;,
  4;185,184,243,244;,
  4;245,181,177,241;,
  4;184,187,246,243;,
  4;247,193,196,248;,
  4;249,185,244,249;,
  4;248,196,154,234;,
  4;235,249,249,235;,
  4;237,158,198,250;,
  4;251,238,238,251;,
  4;250,198,200,118;,
  4;187,251,251,246;,
  3;136,135,131;,
  3;139,252,0;,
  3;156,139,0;,
  3;157,156,0;,
  3;135,150,131;,
  3;150,155,131;,
  3;179,178,131;,
  3;253,182,0;,
  3;182,197,0;,
  3;197,157,0;,
  3;195,179,131;,
  3;155,195,131;,
  4;94,89,91,95;,
  4;94,95,92,90;,
  4;95,91,87,93;,
  4;95,93,88,92;,
  4;254,255,256,257;,
  4;254,257,258,259;,
  4;257,256,260,261;,
  4;257,261,262,258;;
 }
 MeshTextureCoords {
  177;
  0.246380;0.533590;,
  0.246380;0.533590;,
  0.291570;0.456880;,
  0.274100;0.456880;,
  0.246380;0.533590;,
  0.274100;0.456880;,
  0.252030;0.916370;,
  0.260850;0.916370;,
  0.260850;0.902390;,
  0.252030;0.902390;,
  0.269680;0.916370;,
  0.269680;0.902390;,
  0.252030;0.959160;,
  0.260850;0.959160;,
  0.260850;0.944900;,
  0.252030;0.944900;,
  0.269680;0.959160;,
  0.269680;0.944900;,
  0.238940;0.533590;,
  0.216800;0.457530;,
  0.193620;0.457530;,
  0.216630;0.533590;,
  0.238940;0.533590;,
  0.216630;0.533590;,
  0.193620;0.457530;,
  0.216800;0.457530;,
  0.238220;0.897600;,
  0.271050;0.895070;,
  0.263830;0.880600;,
  0.251680;0.862170;,
  0.218450;0.862170;,
  0.210880;0.881380;,
  0.238220;0.897600;,
  0.210880;0.881590;,
  0.218450;0.862170;,
  0.251680;0.862170;,
  0.263830;0.880600;,
  0.271050;0.895070;,
  0.233600;0.989540;,
  0.247420;0.986760;,
  0.273070;0.962620;,
  0.240750;0.960590;,
  0.211900;0.965900;,
  0.210770;0.994080;,
  0.252030;0.961050;,
  0.251150;0.962550;,
  0.260850;0.962550;,
  0.260850;0.961050;,
  0.233600;0.989540;,
  0.210770;0.994080;,
  0.211900;0.966160;,
  0.240750;0.960590;,
  0.273070;0.962620;,
  0.247420;0.986760;,
  0.270560;0.962550;,
  0.269680;0.961050;,
  0.181640;0.533590;,
  0.156110;0.456880;,
  0.138650;0.456880;,
  0.181640;0.533590;,
  0.156110;0.456880;,
  0.181640;0.533590;,
  0.252030;0.916370;,
  0.252030;0.902390;,
  0.260850;0.902390;,
  0.260850;0.916370;,
  0.269680;0.902390;,
  0.269680;0.916370;,
  0.252030;0.959160;,
  0.252030;0.944900;,
  0.260850;0.944900;,
  0.260850;0.959160;,
  0.269680;0.944900;,
  0.269680;0.959160;,
  0.195660;0.533590;,
  0.172650;0.457530;,
  0.195660;0.533590;,
  0.172650;0.457530;,
  0.181560;0.892030;,
  0.187690;0.861150;,
  0.169610;0.865920;,
  0.151770;0.893550;,
  0.181560;0.892030;,
  0.187690;0.861150;,
  0.151770;0.893550;,
  0.169610;0.865920;,
  0.192760;0.989540;,
  0.185610;0.950470;,
  0.157330;0.957050;,
  0.177930;0.983720;,
  0.252030;0.961050;,
  0.260850;0.961050;,
  0.192760;0.989540;,
  0.185610;0.950470;,
  0.177930;0.983720;,
  0.157330;0.957050;,
  0.269680;0.961050;,
  0.260850;0.930320;,
  0.252030;0.930320;,
  0.269680;0.930320;,
  0.280420;0.927710;,
  0.252900;0.928220;,
  0.252900;0.928220;,
  0.280420;0.927710;,
  0.252030;0.930320;,
  0.260850;0.930320;,
  0.269680;0.930320;,
  0.174970;0.927210;,
  0.145940;0.927710;,
  0.145940;0.927710;,
  0.174970;0.927210;,
  0.252030;0.944900;,
  0.269680;0.944900;,
  0.270560;0.952700;,
  0.251150;0.952560;,
  0.269680;0.944900;,
  0.252030;0.944900;,
  0.269680;0.930320;,
  0.252030;0.930320;,
  0.269680;0.916370;,
  0.252030;0.916370;,
  0.270560;0.908660;,
  0.251150;0.908560;,
  0.269680;0.916370;,
  0.252030;0.916370;,
  0.269680;0.930320;,
  0.252030;0.930320;,
  0.214240;0.805040;,
  0.214240;0.538080;,
  0.201930;0.538080;,
  0.201930;0.805040;,
  0.260850;0.899590;,
  0.256310;0.899590;,
  0.226540;0.805040;,
  0.226540;0.538080;,
  0.265410;0.899590;,
  0.252210;0.861560;,
  0.239430;0.861560;,
  0.256310;0.899590;,
  0.252030;0.899760;,
  0.219070;0.861560;,
  0.255860;0.899590;,
  0.251150;0.899760;,
  0.219070;0.861560;,
  0.239430;0.861560;,
  0.265860;0.899590;,
  0.265410;0.899590;,
  0.269680;0.899760;,
  0.270560;0.899760;,
  0.252210;0.861560;,
  0.200710;0.805040;,
  0.200710;0.538080;,
  0.214240;0.538080;,
  0.214240;0.805040;,
  0.255860;0.899590;,
  0.260850;0.899590;,
  0.227760;0.538080;,
  0.227760;0.805040;,
  0.265860;0.899590;,
  0.199950;0.861560;,
  0.188680;0.861060;,
  0.255860;0.899590;,
  0.252030;0.899760;,
  0.199950;0.861560;,
  0.265860;0.899590;,
  0.269680;0.899760;,
  0.188680;0.861060;,
  0.211550;0.022200;,
  0.417030;0.549890;,
  0.314190;0.549890;,
  0.314190;0.277250;,
  0.417030;0.277250;,
  0.529610;0.277250;,
  0.529610;0.549890;,
  0.314190;-0.000690;,
  0.417030;-0.000690;,
  0.529610;-0.000690;;
 }
}
